<?xml version="1.0" encoding="utf-8"?>
<!-- Generator: Adobe Illustrator 23.0.3, SVG Export Plug-In . SVG Version: 6.00 Build 0)  -->
<svg version="1.1" id="Layer_1" xmlns="http://www.w3.org/2000/svg" xmlns:xlink="http://www.w3.org/1999/xlink" x="0px" y="0px"
	 viewBox="0 0 76.5 59" style="enable-background:new 0 0 76.5 59;" xml:space="preserve">
<style type="text/css">
	.st0{fill:#B1732F;}
	.st1{fill:#BF7F3A;}
	.st2{opacity:0.2;}
	.st3{fill:#633D18;}
	.st4{opacity:0.3;}
	.st5{fill:#FDD3A0;}
	.st6{fill:#DCAF72;}
	.st7{fill:#936D3F;}
	.st8{fill:#758436;}
	.st9{opacity:0.4;}
	.st10{fill:#523629;}
	.st11{fill:#C9DB38;}
	.st12{fill:#92AD3C;}
	.st13{fill:#77903C;}
	.st14{fill:#010101;}
	.st15{fill:#872D2C;}
	.st16{fill:#B83E3E;}
	.st17{fill:#C75755;}
	.st18{fill:#D56869;}
	.st19{fill:#E97C7E;}
	.st20{fill:#F3CCCA;}
	.st21{fill:#FEEEED;}
	.st22{fill:#E29797;}
	.st23{enable-background:new    ;}
	.st24{clip-path:url(#XMLID_3_);}
	.st25{fill:#BB2827;}
	.st26{fill:#EB2227;}
	.st27{fill:#ED9272;}
	.st28{fill:#FBC5B5;}
	.st29{fill:#FBD1D1;}
	.st30{fill:#F9D3A6;}
	.st31{fill:#CB9251;}
	.st32{fill:#C59966;}
</style>
<g id="XMLID_21451_">
	<g id="XMLID_21452_">
		<g id="XMLID_21453_">
			<path id="XMLID_21454_" class="st0" d="M69.5,39.7L69.5,39.7c0,0.2,0,0.3,0,0.4c0,0,0,0,0,0.1c0,0,0,0,0,0c0,0.1-0.1,0.2-0.1,0.3
				c0,0,0,0,0,0c0,0,0,0.1,0,0.1c0,0.1,0,0.1-0.1,0.2c0,0,0,0.1-0.1,0.1c0,0-0.1,0.1-0.1,0.1c0,0,0,0.1-0.1,0.1
				c0,0.1-0.1,0.1-0.1,0.1c0,0-0.1,0.1-0.1,0.1c0,0,0,0,0,0c-0.1,0.1-0.1,0.1-0.2,0.2c0,0-0.1,0.1-0.1,0.1l0,0
				c-0.1,0-0.1,0.1-0.2,0.1C68.2,41.9,68.1,42,68,42c0,0,0,0,0,0c-0.1,0.1-0.3,0.2-0.4,0.3c0,0-0.1,0-0.1,0
				c-0.1,0.1-0.2,0.1-0.3,0.2c-0.1,0-0.1,0.1-0.2,0.1L42.1,53.4c-0.3,0.1-0.6,0.2-0.9,0.3c-0.1,0-0.1,0-0.2,0.1
				c-0.3,0.1-0.6,0.2-0.9,0.3c0,0,0,0,0,0c0,0,0,0-0.1,0c-0.4,0.1-0.7,0.1-1.1,0.2c0,0-0.1,0-0.1,0c0,0-0.1,0-0.1,0
				c-0.2,0-0.4,0-0.6,0.1c-0.1,0-0.1,0-0.2,0c0,0,0,0,0,0c-0.1,0-0.3,0-0.4,0c-0.1,0-0.2,0-0.3,0h0c-0.1,0-0.2,0-0.2,0
				c-0.1,0-0.3,0-0.4,0c0,0,0,0-0.1,0c-0.1,0-0.2,0-0.2,0c-0.1,0-0.2,0-0.3,0c0,0-0.1,0-0.1,0c-0.1,0-0.2,0-0.3,0
				c-0.1,0-0.2,0-0.3,0c-0.1,0-0.1,0-0.2,0c-0.1,0-0.2,0-0.3,0c-0.1,0-0.1,0-0.2,0c-0.1,0-0.2,0-0.3,0c-0.1,0-0.2,0-0.3,0
				c0,0-0.1,0-0.1,0c-0.1,0-0.2,0-0.3-0.1c-0.1,0-0.2,0-0.3-0.1c0,0-0.1,0-0.1,0c-0.1,0-0.2,0-0.3-0.1c-0.1,0-0.2-0.1-0.4-0.1
				c0,0-0.1,0-0.1,0c-0.1,0-0.1,0-0.2-0.1c-0.2-0.1-0.3-0.1-0.5-0.2c0,0-0.1,0-0.1,0c0,0-0.1,0-0.1,0c-0.3-0.1-0.5-0.2-0.8-0.4
				L10.1,42.1l-1-0.5c-0.2-0.1-0.4-0.3-0.6-0.4v0c-0.9-0.6-1.3-1.3-1.3-2.1l-0.1-5.7c0,0.2,0,0.3,0.1,0.5c0,0.1,0,0.1,0.1,0.2
				c0,0.1,0,0.1,0.1,0.2c0,0,0,0.1,0.1,0.1c0,0,0,0,0,0.1c0,0,0.1,0.1,0.1,0.1c0.1,0.1,0.1,0.2,0.2,0.3c0,0,0.1,0.1,0.1,0.1
				c0,0,0.1,0.1,0.1,0.1c0.3,0.3,0.7,0.6,1.2,0.9L9.3,36v0l0-0.3l21.7,11.6c0,0,0.1,0,0.1,0c0.1,0,0.1,0.1,0.2,0.1
				c0.1,0.1,0.2,0.1,0.3,0.1c0.1,0,0.2,0.1,0.3,0.1c0.1,0,0.2,0.1,0.3,0.1c0,0,0.1,0,0.1,0.1c0.1,0,0.3,0.1,0.4,0.1c0,0,0.1,0,0.1,0
				c0.2,0,0.3,0.1,0.5,0.1c0,0,0.1,0,0.1,0c0.1,0,0.3,0.1,0.4,0.1c0.1,0,0.3,0.1,0.5,0.1c0.1,0,0.2,0,0.3,0c0.1,0,0.2,0,0.3,0
				c0.2,0,0.4,0,0.5,0c0.1,0,0.2,0,0.3,0c0,0,0,0,0.1,0c0,0,0.1,0,0.1,0c0.3,0,0.6,0,0.9,0H37c0,0,0,0,0,0c0.2,0,0.3,0,0.5,0
				c0.1,0,0.3,0,0.4,0c0.1,0,0.2,0,0.3,0c0.2,0,0.4-0.1,0.6-0.1c0.2,0,0.5-0.1,0.7-0.1c0.1,0,0.1,0,0.2,0c0,0,0,0,0,0c0,0,0,0,0.1,0
				c0.1,0,0.2,0,0.3-0.1c0.2-0.1,0.4-0.1,0.6-0.2c0.1,0,0.1,0,0.2-0.1c0.1-0.1,0.3-0.1,0.4-0.2l0.1-0.1c0.1,0,0.2-0.1,0.3-0.1
				l0.7-0.3l1-0.4l4.4-1.9l1.7-0.7l6-2.6l0.7-0.3l7.2-3.1l1.1-0.5l1.8-0.8l0,0.2l0.2-0.1c0.1,0,0.2-0.1,0.3-0.1
				c0.1,0,0.2-0.1,0.3-0.1c0,0,0.1,0,0.1,0c0,0,0,0,0,0c0.1-0.1,0.2-0.1,0.3-0.1c0.1-0.1,0.2-0.1,0.2-0.2c0.1-0.1,0.2-0.1,0.3-0.2
				c0.1,0,0.1-0.1,0.2-0.1c0,0,0,0,0.1-0.1c0,0,0.1,0,0.1-0.1c0.1-0.1,0.2-0.2,0.2-0.2c0,0,0.1-0.1,0.1-0.1c0.1-0.1,0.1-0.2,0.2-0.2
				c0,0,0.1-0.1,0.1-0.1c0.1-0.1,0.1-0.2,0.1-0.3c0,0,0-0.1,0-0.1c0-0.1,0.1-0.1,0.1-0.2c0-0.1,0-0.1,0-0.2c0,0,0,0,0,0v0
				c0,0,0,0,0,0c0-0.1,0-0.2,0-0.2c0,0,0-0.1,0-0.1l0,1.6l0,0.8L69.5,39.7z"/>
		</g>
	</g>
</g>
<g id="XMLID_21447_">
	<g id="XMLID_21448_">
		<g id="XMLID_21449_">
			<path id="XMLID_21450_" class="st1" d="M35.8,53.3l-0.6,0l-0.5-0.1c-0.1,0-0.2,0-0.3,0c-0.1,0-0.3-0.1-0.4-0.1
				c0,0-0.6-0.1-0.6-0.1L33,52.9c-0.1,0-0.2,0-0.2-0.1c0,0-0.1,0-0.1,0c0,0-0.1-0.1-0.2-0.1c-0.2-0.1-0.3-0.1-0.5-0.2
				c0,0-0.1,0-0.1,0c0,0-0.1,0-0.1-0.1c-0.3-0.1-0.5-0.2-0.7-0.3L9.4,40.6c-0.2-0.1-0.4-0.2-0.5-0.3c0,0,0,0,0,0
				c-0.5-0.3-1-0.9-1.1-1.5l-0.1-3.2C8,35.8,8.3,36,8.7,36.1L9,36.3c0.1,0.1,0.2,0.1,0.3,0.1c0.1,0,0.2,0,0.2,0l21.2,11.3
				c0.1,0,0.1,0.1,0.2,0.1c0.1,0.1,0.2,0.1,0.4,0.2c0.1,0,0.2,0.1,0.3,0.1c0.1,0,0.2,0.1,0.3,0.1c0,0,0.1,0,0.2,0.1
				c0.1,0,0.3,0.1,0.4,0.1c0,0,0.1,0,0.1,0c0.1,0,0.3,0.1,0.5,0.1c0,0,0.1,0,0.1,0c0.1,0,0.3,0.1,0.4,0.1c0.1,0,0.3,0.1,0.4,0.1
				c0,0,0.4,0.1,0.4,0.1c0.1,0,0.2,0,0.3,0c0.2,0,0.4,0,0.5,0c0.1,0,0.2,0,0.4,0c0,0,0.1,0,0.1,0c0.3,0,0.5,0,0.7,0
				c0.1,0,0.5,0,0.5,0c0.2,0,0.3,0,0.5,0c0.2,0,0.3,0,0.5,0l0.3,0c0.2,0,0.4-0.1,0.6-0.1c0.2,0,0.5-0.1,0.7-0.1c0,0,0.2-0.1,0.3-0.1
				c0.2,0,0.3-0.1,0.4-0.1c0.2-0.1,0.4-0.1,0.6-0.2l0.3-0.1c0.1,0,0.3-0.1,0.4-0.1l0.1,0c0.1,0,0.2-0.1,0.3-0.1l24.1-10.5
				c0.1,0,0.2,0.1,0.3,0.1c0.1,0,0.2,0,0.3-0.1l0.2-0.1c0.1,0,0.2-0.1,0.3-0.1c0.1,0,0.4-0.2,0.4-0.2l0,0c0,0,0.3-0.2,0.3-0.2
				c0.1-0.1,0.2-0.1,0.3-0.2c0.1-0.1,0.2-0.1,0.3-0.2l0.2-0.2l0.1,3.3c0,0,0,0.1,0,0.1l0,0c0,0,0,0,0,0.1c0,0.1,0,0.1-0.1,0.2
				c0,0,0,0.1,0,0.1l0,0c0,0,0,0.1,0,0.1l-0.1,0.1c0,0-0.1,0.1-0.1,0.2l-0.2,0.3c0,0,0,0-0.1,0.1c0,0-0.2,0.2-0.2,0.2l-0.1,0.1
				c-0.1,0.1-0.2,0.1-0.3,0.2l0,0c0,0,0,0,0,0c-0.1,0.1-0.3,0.2-0.4,0.2l-0.1,0c-0.1,0.1-0.2,0.1-0.3,0.2l-0.2,0.1L41.8,52.4
				c-0.2,0.1-0.5,0.2-0.8,0.3c-0.1,0-0.1,0-0.2,0.1c-0.3,0.1-0.6,0.2-0.9,0.2c0,0-0.1,0-0.1,0c-0.3,0.1-0.6,0.1-1,0.2
				c0,0-0.1,0-0.1,0l-0.1,0c-0.2,0-0.4,0-0.6,0.1c0,0-0.2,0-0.2,0l0,0l-0.7,0l-0.6,0C36.5,53.3,35.9,53.3,35.8,53.3z"/>
		</g>
	</g>
</g>
<g id="XMLID_21443_" class="st2">
	<g id="XMLID_21444_">
		<g id="XMLID_21445_">
			<path id="XMLID_21446_" class="st3" d="M69.3,39.8L69.3,39.8c0,0.2,0,0.3,0,0.3c0,0,0,0,0,0.1c0,0,0,0,0,0c0,0.1-0.1,0.2-0.1,0.3
				c0,0,0,0,0,0c0,0,0,0.1,0,0.1c0,0.1,0,0.1-0.1,0.2c0,0,0,0.1-0.1,0.1c0,0,0,0.1-0.1,0.1c0,0,0,0.1-0.1,0.1c0,0-0.1,0.1-0.1,0.1
				c0,0-0.1,0.1-0.1,0.1c0,0,0,0,0,0c-0.1,0.1-0.1,0.1-0.2,0.2l-0.1,0.1c0,0,0,0,0,0c0,0-0.1,0.1-0.2,0.1c-0.1,0.1-0.2,0.1-0.3,0.2
				c0,0,0,0,0,0c-0.1,0.1-0.3,0.2-0.4,0.3c0,0-0.1,0-0.1,0c-0.1,0.1-0.2,0.1-0.3,0.2c-0.1,0-0.1,0.1-0.2,0.1L52,49
				c2.2-1.2,4.3-2.6,6-4.5c0.5-0.5,0.9-1.1,0.9-1.8c0-0.7-0.6-1.3-1.3-1.5c-0.2-0.1-0.5-0.1-0.7-0.2l9.5-4.1l0,0.2l0.2-0.1
				c0.2-0.1,0.4-0.2,0.5-0.3c0,0,0.1,0,0.1,0c0.2-0.1,0.3-0.2,0.5-0.3c0.1-0.1,0.2-0.1,0.3-0.2c0.1,0,0.1-0.1,0.2-0.1
				c0,0,0.1-0.1,0.1-0.1c0.1-0.1,0.2-0.2,0.2-0.2c0,0,0.1-0.1,0.1-0.1c0.1-0.1,0.1-0.2,0.2-0.2c0,0,0.1-0.1,0.1-0.1
				c0-0.1,0.1-0.2,0.1-0.3c0,0,0-0.1,0-0.1c0-0.1,0.1-0.2,0.1-0.4c0,0,0,0,0-0.1c0-0.1,0-0.2,0-0.3L69.3,39.8z"/>
		</g>
	</g>
</g>
<g id="XMLID_21439_" class="st4">
	<g id="XMLID_21440_">
		<g id="XMLID_21441_">
			<path id="XMLID_21442_" class="st5" d="M19.4,47L9.2,41.6c-1.3-0.7-2-1.6-2-2.5l-0.1-5.7c0,0.9,0.7,1.8,2,2.5L9.4,36v-0.3
				l7.3,3.9c-0.4,0.1-0.7,0.3-0.8,0.6c-0.2,0.4-0.2,0.8-0.1,1.3c0.3,1.6,1.3,3.1,2.4,4.3C18.6,46.2,19,46.6,19.4,47z"/>
		</g>
	</g>
</g>
<g id="XMLID_21434_">
	<g id="XMLID_21435_">
		<g id="XMLID_21436_">
			<g id="XMLID_21437_">
				<path id="XMLID_21438_" class="st6" d="M67.2,31.7c2.8,1.5,2.5,3.8-0.7,5.2L41.8,47.6c-3.2,1.4-8,1.3-10.7-0.2L9.3,35.8
					C6.6,34.3,6.9,32,10,30.6l24.7-10.7c3.1-1.4,8-1.3,10.7,0.2L67.2,31.7z"/>
			</g>
		</g>
	</g>
</g>
<g id="XMLID_21426_">
	<g id="XMLID_21427_">
		<g id="XMLID_21428_">
			<g id="XMLID_21429_">
				<path id="XMLID_21430_" class="st7" d="M67.5,31.5L66,30.8L45.7,20c-2.9-1.5-8-1.6-11.3-0.2L9.8,30.5c-0.4,0.2-0.8,0.4-1.1,0.6
					h0c-0.9,0.6-1.4,1.3-1.6,1.9c0,0.1,0,0.3,0,0.4c0,0,0,0.1,0,0.1c0,0,0,0,0,0c0,0,0,0.1,0,0.1c0,0,0,0,0,0c0,0.1,0,0.1,0,0.1
					c0,0.1,0,0.1,0.1,0.2c0,0.1,0,0.1,0.1,0.2c0,0,0,0.1,0.1,0.1c0,0,0,0,0,0c0,0,0,0,0,0.1c0,0,0,0,0,0c0,0,0,0.1,0.1,0.1
					c0,0.1,0.1,0.1,0.1,0.2c0,0,0,0,0,0c0,0.1,0.1,0.1,0.1,0.2c0,0,0.1,0.1,0.1,0.1c0.1,0.1,0.1,0.1,0.2,0.2c0,0,0.1,0.1,0.1,0.1
					c0.1,0,0.1,0.1,0.2,0.1c0.1,0.1,0.3,0.2,0.5,0.3c0.1,0,0.2,0.1,0.2,0.1L9.3,36v0l21.4,11.4c2.9,1.5,7.9,1.6,11.3,0.2l0.3-0.1
					c0,0,0,0,0,0l0.5-0.2c0,0,0,0,0,0l5-2.2l1.1-0.5l17.6-7.6l0.2-0.1c0.1,0,0.2-0.1,0.3-0.1c0.1-0.1,0.2-0.1,0.3-0.2c0,0,0,0,0,0
					c0.1-0.1,0.2-0.1,0.3-0.1c0.3-0.2,0.5-0.3,0.7-0.5c0,0,0,0,0,0c0,0,0,0,0,0c0.5-0.4,0.8-0.9,1-1.4c0-0.1,0-0.1,0-0.2
					c0,0,0,0,0,0v0c0-0.1,0-0.2,0-0.3c0,0,0-0.1,0-0.1C69.4,33.1,68.8,32.3,67.5,31.5z M66.5,36.8L41.8,47.6c-0.1,0-0.2,0.1-0.3,0.1
					l-0.1,0.1c-0.1,0-0.1,0.1-0.2,0.1c-0.3,0.1-0.7,0.2-1,0.3c0,0,0,0,0,0c-0.1,0-0.2,0-0.3,0.1c0,0,0,0-0.1,0c0,0,0,0,0,0
					c-0.1,0-0.1,0-0.2,0c-0.8,0.2-1.6,0.3-2.5,0.3c0,0,0,0,0,0h0c-0.3,0-0.7,0-1,0c0,0-0.1,0-0.1,0c0,0,0,0-0.1,0
					c-0.3,0-0.6,0-0.9-0.1c-0.1,0-0.1,0-0.2,0c-0.2,0-0.3,0-0.5-0.1c-0.1,0-0.2,0-0.2,0c-0.1,0-0.1,0-0.2,0c-0.2,0-0.4-0.1-0.5-0.1
					c-0.1,0-0.1,0-0.2,0c-0.1,0-0.2-0.1-0.3-0.1c0,0-0.1,0-0.1,0c-0.1,0-0.3-0.1-0.4-0.1c0,0-0.1,0-0.1-0.1c0,0-0.1,0-0.1,0
					c-0.1-0.1-0.3-0.1-0.4-0.2c-0.1,0-0.2-0.1-0.2-0.1c0,0-0.1,0-0.1,0c-0.1,0-0.1-0.1-0.2-0.1c0,0-0.1,0-0.1,0L9.3,35.8
					c-0.7-0.4-1.2-0.8-1.5-1.2c-0.3-0.4-0.4-0.8-0.4-1.3v0c0-0.8,0.6-1.5,1.6-2.2h0c0.3-0.2,0.6-0.4,1-0.5l24.7-10.7
					c3.1-1.4,8-1.3,10.7,0.2l20.3,10.8l1.5,0.8C70,33.1,69.6,35.5,66.5,36.8z"/>
			</g>
		</g>
	</g>
</g>
<g id="XMLID_21422_">
	<g id="XMLID_21423_">
		<g id="XMLID_21424_">
			<path id="XMLID_21425_" class="st8" d="M70.5,33C70.4,33,70.4,33,70.5,33c-0.3,0.3-0.7,0.4-1,0.5c0,0,0,0,0,0
				c-0.4,0.1-0.7,0.2-0.9,0.4c-0.2,0.2-0.2,0.5-0.2,0.8c0,0.2,0.1,0.4,0.1,0.6l0,0.2c0.1,0.4,0.1,0.9-0.1,1.3
				c-0.1,0.1-0.1,0.2-0.2,0.2c-0.1,0.1-0.2,0.2-0.4,0.2c-0.1,0-0.2,0-0.2,0c-0.6,0-1-0.5-1.4-0.9c-0.1-0.1-0.2-0.2-0.2-0.3
				c-0.4-0.4-0.9-0.6-1.3-0.6c0,0-0.1,0-0.1,0c-0.1,0-0.1,0-0.2,0c-0.3,0-0.7,0.2-0.8,0.5c0,0,0,0,0,0c-0.1,0.1-0.2,0.3-0.1,0.5
				c0,0.1,0,0.1,0.1,0.2c0.1,0.2,0.2,0.3,0.3,0.5c0.2,0.2,0.4,0.5,0.4,0.7c0.1,0.4-0.1,0.8-0.4,1.1c-0.2,0.2-0.5,0.4-0.8,0.6
				C62.5,39.8,61.7,40,61,40c-0.4,0-0.9-0.1-1.3-0.2c-0.4-0.1-0.7-0.2-1.1-0.4C58,39.2,57.4,39,56.8,39c-0.1,0-0.3,0-0.4,0
				c0,0,0,0,0,0c-0.3,0.1-0.5,0.2-0.7,0.3c-0.6,0.4-0.9,1-1.1,1.5c-0.1,0.2-0.1,0.4-0.2,0.6c0,0,0,0.1,0,0.1c0,0,0,0,0,0
				c-0.1,0.2-0.2,0.5-0.3,0.7c-0.2,0.4-0.4,0.8-0.7,1.1c-0.4,0.4-1.1,0.7-1.7,0.7c-0.5,0-0.9-0.2-1.2-0.5c-0.3-0.3-0.4-0.7-0.5-1.1
				c0-0.2-0.1-0.4-0.2-0.6c-0.1-0.2-0.2-0.3-0.3-0.4c-0.1,0-0.1,0-0.2,0c-0.5,0-1,0.5-1.1,0.9c0,0.1,0,0.2-0.1,0.3
				c0,0.1,0,0.1,0,0.2c0,0.2,0,0.4,0,0.5c0,0.3,0,0.6-0.1,0.9c-0.1,0.3-0.2,0.6-0.4,0.8c0,0,0,0,0,0c-0.4,0.5-1,0.9-1.7,1
				c-0.1,0-0.2,0-0.3,0c-0.9,0-1.9-0.6-2-1.5c0,0,0,0,0,0c0,0,0,0,0-0.1c0-0.1,0-0.2,0-0.2c0-0.1-0.1-0.1-0.3-0.1
				c-0.3,0-0.6,0.2-0.7,0.5c0,0.1,0,0.2,0,0.4c0,0.1,0,0.1,0,0.2c0,0.1,0,0.2,0.1,0.2c0.1,0.2,0.1,0.4,0.1,0.7
				c0,0.4-0.1,0.8-0.4,1.1c-0.3,0.4-0.8,0.7-1.3,0.9c-0.5,0.2-1.1,0.2-1.8,0.2c-0.3,0-0.6,0-0.9,0c-1.5-0.1-2.4-0.4-2.7-1.2
				c-0.1-0.2-0.1-0.3-0.1-0.5c0-0.1,0-0.2-0.1-0.4c0,0,0-0.1-0.1-0.1c-0.2-0.3-0.6-0.4-0.9-0.4c-0.3,0-0.7,0.1-1.1,0.3
				c-0.2,0.1-0.3,0.2-0.5,0.3l-0.1,0.1c-0.6,0.4-1.4,0.9-2.1,0.9c-0.2,0-0.4,0-0.6-0.1c-0.7-0.3-0.9-1-1.1-1.6
				c0-0.1-0.1-0.2-0.1-0.3c-0.2-0.6-0.7-1.1-1.3-1.1c-0.1,0-0.1,0-0.2,0c-0.2,0.1-0.4,0.2-0.6,0.4c-0.1,0.1-0.2,0.2-0.3,0.3
				c-0.3,0.2-0.8,0.4-1.2,0.4c-0.4,0-0.7-0.1-1-0.2c-0.7-0.4-1-1.1-0.9-1.8c0-0.1,0.1-0.2,0.1-0.3c0.1-0.2,0.1-0.4,0.1-0.6
				c-0.1-0.5-0.7-0.6-1.4-0.7c-0.4-0.1-0.9-0.1-1.3-0.3c-0.2-0.1-0.3-0.2-0.5-0.3c-0.2-0.1-0.4-0.3-0.6-0.4c-0.1,0-0.2,0-0.3,0
				c-0.5,0-1,0.3-1.5,0.6c-0.5,0.3-1,0.6-1.5,0.6c-0.2,0-0.4,0-0.6-0.1c-0.7-0.4-0.6-1.2-0.5-1.9c0-0.3,0.1-0.5,0.1-0.8
				c0-0.6-0.4-1.2-1-1.4c-0.2-0.1-0.4-0.1-0.6-0.1c-0.5,0-0.9,0.2-1.2,0.5c-0.1,0.1-0.1,0.2-0.2,0.3c-0.1,0.1-0.2,0.3-0.3,0.4
				C12,38.9,11.6,39,11,39c-0.3,0-0.5,0-0.7-0.1c-0.3,0-0.7-0.1-1-0.3c-0.2-0.2-0.4-0.4-0.4-0.7c0,0,0-0.1,0-0.1
				c0-0.6,0.5-1.2,0.9-1.6c0.1-0.1,0.4-0.3,0.6-0.6c0.2-0.3,0.4-0.6,0.4-0.9c0-0.2-0.1-0.3-0.2-0.5C10.3,34,9.7,34,9.2,33.9
				c-0.7-0.1-1.4-0.1-1.6-0.7c0-0.1,0-0.1,0-0.2c0-0.1,0-0.2,0.1-0.4c0-0.1,0.1-0.3,0.2-0.4c0,0,0-0.1,0.1-0.1
				C8,32,8.1,31.9,8.1,31.8c0.2-0.3,0.2-0.7,0-1.1c-0.1-0.3-0.3-0.6-0.6-0.8c-0.1-0.1-0.2-0.2-0.4-0.2c-0.1,0-0.2-0.1-0.4-0.1
				c-0.4-0.1-0.7-0.2-0.9-0.5c-0.1-0.2-0.2-0.5,0-0.7C6,27.9,6.5,27.6,7,27.5c0.1,0,0.1,0,0.2,0c0.5,0,0.9,0.1,1.4,0.3
				C8.8,27.9,9,27.9,9.2,28C9.4,28,9.6,28,9.9,28c0.3,0,0.8-0.1,1.1-0.4c0,0,0.1-0.1,0.1-0.1c0,0,0,0,0.1,0l1.4,0.5l13.3,6.2
				c0.8,0.4,1.7,0.9,2.6,1.3c2.4,1.3,4.9,2.7,7.5,2.7c0.2,0,0.4,0,0.5,0c1.6-0.1,3-0.5,4.6-1c9.1-2.8,18.7-6.9,26.4-10.2
				c0.5-0.2,1.1-0.5,1.7-0.5c0.1,0,0.1,0,0.2,0c0.4,0,0.9,0.3,1.1,0.6c0.1,0.2,0.2,0.5,0.1,0.7c-0.1,0.2-0.2,0.4-0.4,0.6
				c0,0-0.1,0.1-0.1,0.1c-0.1,0.1-0.3,0.3-0.3,0.4c-0.1,0.2-0.1,0.4-0.1,0.6c0.1,0.4,0.3,0.8,0.5,1.2C70.6,31.6,71.1,32.4,70.5,33z"
				/>
		</g>
	</g>
</g>
<g id="XMLID_21418_" class="st9">
	<g id="XMLID_21419_">
		<g id="XMLID_21420_">
			<path id="XMLID_21421_" class="st10" d="M69.5,33.5l0,0.8c-0.1,0-0.3,0.1-0.4,0.1c-0.3,0.1-0.5,0.1-0.7,0.3
				c-0.1,0-0.1,0.1-0.2,0.2c-0.3,0.4-0.2,0.9,0,1.4l0,0.2c0,0.2,0.1,0.4,0.1,0.6c0,0.3-0.1,0.5-0.2,0.7c-0.1,0.2-0.3,0.4-0.6,0.4
				c-0.1,0-0.2,0-0.2,0c-0.6,0-1-0.5-1.4-0.9c-0.1-0.1-0.2-0.2-0.2-0.3c-0.4-0.4-0.9-0.6-1.4-0.6c-0.1,0-0.1,0-0.2,0
				c-0.2,0-0.4,0.1-0.6,0.2c-0.1,0.1-0.2,0.2-0.3,0.3c-0.1,0.1-0.2,0.3-0.1,0.5c0,0.2,0.2,0.4,0.4,0.7c0.2,0.2,0.4,0.5,0.4,0.7
				c0,0.1,0,0.1,0,0.1c0.1,0.7-0.6,1.2-1.2,1.5c-0.7,0.3-1.4,0.5-2.2,0.5c-0.4,0-0.9-0.1-1.3-0.2c-0.4-0.1-0.7-0.2-1.1-0.4
				C57.6,40.2,57,40,56.4,40c-0.2,0-0.3,0-0.5,0c-0.9,0.2-1.4,0.9-1.7,1.6c0,0,0,0,0,0c0,0.1-0.1,0.2-0.1,0.3
				C54,42,54,42.2,53.9,42.3l0,0.1c-0.3,0.7-0.5,1.4-1.1,1.9c-0.4,0.4-1.1,0.7-1.7,0.7c-0.5,0-0.9-0.2-1.2-0.5
				c-0.3-0.3-0.4-0.7-0.5-1.1c-0.1-0.4-0.2-0.8-0.5-1c0,0,0,0,0,0c-0.1,0-0.1,0-0.2,0c-0.3,0-0.6,0.2-0.8,0.4c0,0-0.1,0.1-0.1,0.1
				c-0.1,0.1-0.2,0.3-0.2,0.4c-0.1,0.3-0.1,0.6-0.1,1c0,0.3,0,0.5-0.1,0.8c0,0,0,0,0,0c0,0,0,0.1,0,0.1c-0.2,1-1,1.7-2,1.9
				c-0.1,0-0.2,0-0.3,0c-0.9,0-1.9-0.6-2-1.5c0,0,0-0.1,0-0.1c0-0.1,0-0.2,0-0.2c0-0.1-0.1-0.1-0.3-0.1c0,0,0,0,0,0c0,0,0,0,0,0
				c-0.1,0-0.1,0-0.2,0c-0.1,0-0.2,0.1-0.3,0.2c0,0,0,0,0,0c-0.1,0.1-0.1,0.2-0.2,0.3c0,0.3,0,0.5,0.1,0.8c0.1,0.2,0.1,0.4,0.1,0.7
				c0,0,0,0.1,0,0.1c0,0.9-0.9,1.6-1.7,1.8c-0.5,0.2-1.1,0.2-1.8,0.2c-0.3,0-0.6,0-0.9,0c-1.5-0.1-2.4-0.4-2.7-1.2
				c-0.1-0.2-0.1-0.3-0.1-0.5c0-0.2,0-0.4-0.1-0.5c-0.2-0.3-0.6-0.4-0.9-0.4c-0.5,0-1.1,0.2-1.6,0.5l-0.1,0.1
				c-0.6,0.4-1.4,0.9-2.1,0.9c-0.2,0-0.4,0-0.6-0.1c-0.7-0.3-0.9-1-1.1-1.6c0-0.1-0.1-0.2-0.1-0.3c-0.2-0.6-0.7-1.1-1.3-1.1
				c-0.1,0-0.1,0-0.2,0c-0.2,0.1-0.4,0.2-0.6,0.4c-0.1,0.1-0.2,0.2-0.3,0.3c-0.3,0.2-0.8,0.4-1.2,0.4c-0.4,0-0.7-0.1-1-0.2
				c-0.7-0.4-1-1.1-0.9-1.8c0-0.1,0.1-0.2,0.1-0.3c0.1-0.2,0.1-0.4,0.1-0.6c-0.1-0.5-0.7-0.6-1.4-0.7c-0.4-0.1-0.9-0.1-1.3-0.3
				c-0.2-0.1-0.3-0.2-0.5-0.3c-0.2-0.1-0.4-0.3-0.6-0.4c-0.1,0-0.2,0-0.3,0c-0.5,0-1,0.3-1.5,0.6c-0.5,0.3-1,0.6-1.5,0.6
				c-0.2,0-0.4,0-0.6-0.1c-0.7-0.4-0.6-1.2-0.5-1.9c0-0.3,0.1-0.5,0.1-0.8c0-0.6-0.4-1.2-1-1.4c-0.2-0.1-0.4-0.1-0.6-0.1
				c-0.5,0-0.9,0.2-1.2,0.5c-0.1,0.1-0.1,0.2-0.2,0.3c-0.1,0.1-0.2,0.3-0.3,0.4c-0.3,0.3-0.7,0.4-1.3,0.4c-0.2,0-0.3,0-0.5,0l-1-0.5
				c-0.2-0.1-0.4-0.3-0.6-0.4v0c0,0,0-0.1,0-0.1c0-0.4,0.1-0.7,0.4-1.1c0.2-0.2,0.4-0.4,0.6-0.6c0.3-0.3,0.9-0.9,1-1.5
				c0,0,0-0.1,0-0.1c0-0.1-0.1-0.3-0.2-0.4c-0.3-0.3-0.9-0.3-1.4-0.4c-0.7-0.1-1.4-0.1-1.6-0.7c-0.1-0.4,0.1-0.8,0.3-1.1
				c0,0,0-0.1,0.1-0.1c0-0.1,0.1-0.2,0.1-0.2c0,0,0,0,0,0c0.1-0.1,0.1-0.2,0.1-0.4c0,0,0-0.1,0-0.1c0,0,0-0.1,0.1-0.1
				C8,32,8.1,31.9,8.1,31.8c0.2-0.3,0.2-0.7,0-1.1c-0.1-0.3-0.3-0.6-0.6-0.8c0.3-0.4,0.6-0.7,1.1-1h0c0,0,0,0,0.1,0
				C8.9,28.9,9,29,9,29h0c0.1,0,0.3,0,0.4,0c0.3,0,0.8-0.1,1.1-0.4c0,0,0.1-0.1,0.1-0.1c0,0,0,0,0.1,0l1.4,0.5l13.3,6.2
				c0.8,0.4,1.7,0.9,2.6,1.3c2.4,1.3,4.9,2.7,7.5,2.7c0.2,0,0.4,0,0.5,0c1.6-0.1,3-0.5,4.6-1c8.6-2.6,17.6-6.4,25-9.6
				c0.1,0,0.2-0.1,0.3-0.1c0.4-0.2,0.8-0.3,1.1-0.5c0.5-0.2,1.1-0.5,1.7-0.5c0.1,0,0.1,0,0.2,0c0.4,0,0.9,0.3,1.1,0.6
				c0.1,0.1,0.1,0.2,0.1,0.3c0,0.1,0,0.3,0,0.4c-0.1,0.3-0.3,0.5-0.5,0.7c0,0,0,0-0.1,0.1c-0.1,0.1-0.2,0.2-0.3,0.3
				c-0.3,0.5,0,1.2,0.4,1.8c0.2,0.4,0.5,0.8,0.5,1.2C70.1,33.3,69.8,33.4,69.5,33.5z"/>
		</g>
	</g>
</g>
<g id="XMLID_21414_">
	<g id="XMLID_21415_">
		<g id="XMLID_21416_">
			<path id="XMLID_21417_" class="st11" d="M11.1,27.7c-0.4,0.5-1.3,0.6-1.9,0.4c-0.7-0.2-1.4-0.5-2.1-0.4c-0.7,0.1-1.4,0.7-1,1.3
				c0.2,0.4,0.8,0.4,1.2,0.6c1,0.4,1.4,1.5,1,2.3c-0.2,0.4-0.6,0.8-0.5,1.3c0.3,0.9,2.2,0.3,2.9,1c0.6,0.6-0.1,1.6-0.8,2.2
				C9.3,37,8.6,38,9.4,38.6c0.3,0.2,0.6,0.2,0.9,0.3c0.7,0.1,1.4,0.1,1.9-0.3c0.2-0.2,0.3-0.4,0.5-0.7c0.4-0.5,1.3-0.7,2-0.4
				c0.7,0.3,1.1,0.9,1.1,1.6c0,0.9-0.5,2.1,0.4,2.6c1.2,0.6,2.5-1.4,3.8-1c0.4,0.1,0.7,0.5,1.1,0.7c0.9,0.4,2.6,0.1,2.8,1.1
				c0.1,0.3-0.1,0.6-0.2,0.9c-0.1,0.6,0.2,1.3,0.8,1.6c0.6,0.3,1.5,0.3,2-0.1c0.3-0.2,0.6-0.6,1-0.7c0.8-0.2,1.4,0.5,1.7,1.2
				c0.2,0.7,0.4,1.5,1.1,1.8c0.9,0.4,1.9-0.3,2.7-0.9c0.8-0.5,2.2-0.9,2.6-0.1c0.2,0.3,0.1,0.7,0.2,1c0.3,0.8,1.5,1,2.5,1.1
				c0.9,0,1.9,0.1,2.7-0.2c0.9-0.3,1.6-1,1.6-1.8c0-0.5-0.3-1-0.2-1.5c0.1-0.5,1-0.8,1.2-0.4c0.1,0.1,0,0.2,0,0.4
				c0.1,0.9,1.1,1.5,2.1,1.4c1-0.1,1.7-0.9,1.9-1.7c0.1-0.6,0-1.3,0.2-1.9c0.2-0.6,0.8-1.2,1.5-1c0.7,0.5,0.5,1.5,1,2.1
				c0.6,0.7,2,0.5,2.7-0.2c0.7-0.7,0.9-1.6,1.3-2.4c0.4-0.8,1-1.7,2-1.9c1.2-0.3,2.3,0.5,3.4,0.8c1.1,0.3,2.3,0.2,3.3-0.3
				c0.6-0.3,1.2-0.9,1.1-1.5c-0.1-0.5-0.7-0.9-0.8-1.4c-0.1-0.6,0.5-1.1,1.1-1.2c0.6-0.1,1.3,0.2,1.7,0.7c0.5,0.5,1,1.2,1.7,1.1
				c0.7-0.2,0.7-0.9,0.6-1.5c-0.2-0.6-0.4-1.3,0-1.7c0.5-0.5,1.4-0.4,1.9-0.9c1.1-1-1.4-2.7-0.7-3.9c0.2-0.4,0.7-0.6,0.8-1
				c0.1-0.5-0.5-1-1.1-1.1c-0.6-0.1-1.2,0.2-1.8,0.4c-8.5,3.6-17.5,7.5-26.4,10.2c-1.6,0.5-3,0.9-4.7,1c-3.8,0.3-7.3-2.4-10.7-4
				c-4.4-2.1-8.9-4.2-13.3-6.2L11.1,27.7z"/>
		</g>
	</g>
</g>
<g id="XMLID_21410_">
	<g id="XMLID_21411_">
		<g id="XMLID_21412_">
			<path id="XMLID_21413_" class="st12" d="M39.4,48c-0.3,0-0.6,0-0.9,0c-1.4-0.1-2.2-0.4-2.4-0.9c0-0.1-0.1-0.2-0.1-0.4
				c0-0.2,0-0.4-0.2-0.6c-0.2-0.4-0.6-0.6-1.2-0.6c-0.6,0-1.2,0.2-1.8,0.6l-0.1,0.1C32.3,46.5,31.6,47,31,47c-0.2,0-0.3,0-0.5-0.1
				c-0.6-0.2-0.8-0.8-0.9-1.4c0-0.1-0.1-0.2-0.1-0.3c-0.2-0.7-0.8-1.4-1.6-1.4c-0.1,0-0.2,0-0.3,0c-0.3,0.1-0.5,0.3-0.8,0.5
				c-0.1,0.1-0.2,0.2-0.3,0.2c-0.3,0.2-0.6,0.3-1,0.3c-0.3,0-0.6-0.1-0.8-0.2c-0.5-0.3-0.8-0.9-0.7-1.4c0-0.1,0-0.2,0.1-0.3
				c0.1-0.2,0.2-0.5,0.1-0.7c-0.1-0.7-0.9-0.8-1.7-0.9c-0.4-0.1-0.9-0.1-1.2-0.3c-0.2-0.1-0.3-0.2-0.4-0.3c-0.2-0.2-0.4-0.3-0.7-0.4
				c-0.1,0-0.3-0.1-0.4-0.1c-0.6,0-1.1,0.3-1.6,0.6c-0.5,0.3-0.9,0.5-1.3,0.5c-0.1,0-0.3,0-0.4-0.1c-0.5-0.3-0.5-0.8-0.3-1.5
				c0-0.3,0.1-0.6,0.1-0.8c0-0.7-0.5-1.4-1.2-1.7c-0.2-0.1-0.5-0.2-0.8-0.2c-0.6,0-1.1,0.2-1.4,0.6c-0.1,0.1-0.1,0.2-0.2,0.3
				c-0.1,0.1-0.1,0.2-0.2,0.3c-0.2,0.2-0.5,0.3-1,0.3c-0.2,0-0.5,0-0.7,0c-0.3,0-0.6-0.1-0.8-0.2c-0.2-0.1-0.2-0.3-0.2-0.4
				c0-0.5,0.4-1,0.8-1.4c0.4-0.3,1-1,1.1-1.7c0-0.3-0.1-0.5-0.3-0.7c-0.4-0.4-1-0.4-1.6-0.5c-0.7-0.1-1.2-0.1-1.3-0.5
				c-0.1-0.2,0.1-0.5,0.3-0.8c0.1-0.1,0.1-0.2,0.2-0.3c0.2-0.4,0.2-0.9,0.1-1.4c-0.2-0.5-0.6-1-1.2-1.2c-0.1-0.1-0.3-0.1-0.4-0.1
				c-0.3-0.1-0.6-0.2-0.8-0.4c-0.1-0.1-0.1-0.3,0-0.4c0.1-0.3,0.5-0.5,0.9-0.6c0.1,0,0.1,0,0.2,0c0.4,0,0.8,0.1,1.3,0.3
				c0.2,0.1,0.4,0.1,0.6,0.2c0.3,0.1,0.5,0.1,0.8,0.1c0.5,0,1-0.2,1.3-0.4l1.3,0.5l13.3,6.2c0.8,0.4,1.7,0.8,2.5,1.3
				c2.4,1.3,5,2.7,7.7,2.7c0.2,0,0.4,0,0.6,0c1.6-0.1,3-0.5,4.7-1c9.2-2.8,18.8-6.9,26.5-10.2c0.5-0.2,1-0.4,1.5-0.4
				c0.1,0,0.1,0,0.2,0c0.3,0,0.7,0.2,0.8,0.5c0.1,0.1,0.1,0.3,0.1,0.4c-0.1,0.2-0.2,0.3-0.4,0.5c-0.1,0.1-0.3,0.3-0.4,0.5
				c-0.4,0.7,0,1.5,0.4,2.2c0.5,0.8,0.7,1.3,0.3,1.7c-0.2,0.2-0.5,0.3-0.9,0.4c-0.4,0.1-0.8,0.2-1,0.5c-0.5,0.5-0.3,1.2-0.1,1.7
				l0,0.2c0.1,0.4,0.1,0.8-0.1,1c-0.1,0.1-0.2,0.2-0.4,0.3c-0.1,0-0.1,0-0.2,0c-0.4,0-0.8-0.4-1.1-0.8c-0.1-0.1-0.2-0.2-0.3-0.3
				c-0.5-0.5-1.1-0.7-1.7-0.7c-0.1,0-0.1,0-0.2,0c-0.4,0-0.8,0.3-1.1,0.6c-0.2,0.2-0.3,0.5-0.2,0.8c0.1,0.3,0.3,0.6,0.5,0.8
				c0.2,0.2,0.3,0.4,0.4,0.6c0.1,0.5-0.4,1-1,1.3c-0.6,0.3-1.3,0.5-2,0.5c-0.4,0-0.8-0.1-1.2-0.2c-0.3-0.1-0.7-0.2-1-0.4
				c-0.6-0.2-1.3-0.5-2-0.5c-0.2,0-0.4,0-0.5,0.1c-1.1,0.2-1.8,1.3-2.1,2.1c-0.1,0.2-0.1,0.4-0.2,0.6c-0.3,0.7-0.5,1.3-1,1.8
				c-0.4,0.4-0.9,0.6-1.5,0.6c-0.3,0-0.7-0.1-0.9-0.4c-0.2-0.2-0.3-0.6-0.4-0.9c-0.1-0.4-0.2-0.9-0.6-1.2c0,0,0,0-0.1,0
				c-0.1,0-0.2,0-0.3,0c-0.7,0-1.3,0.6-1.4,1.2c-0.1,0.3-0.1,0.7-0.1,1c0,0.3,0,0.6-0.1,0.8c-0.2,0.8-0.9,1.5-1.8,1.6
				c-0.1,0-0.2,0-0.2,0c-0.8,0-1.6-0.6-1.6-1.2c0,0,0,0,0-0.1c0-0.1,0-0.2-0.1-0.4c-0.1-0.2-0.3-0.3-0.6-0.3c-0.4,0-0.9,0.3-1,0.7
				c-0.1,0.3,0,0.6,0.1,0.9c0.1,0.2,0.1,0.4,0.1,0.6c0,0.8-0.7,1.4-1.5,1.6C40.7,47.9,40.1,48,39.4,48z"/>
		</g>
	</g>
</g>
<g id="XMLID_21406_">
	<g id="XMLID_21407_">
		<g id="XMLID_21408_">
			<path id="XMLID_21409_" class="st13" d="M13.1,28.9c-1.4-0.2-2.9,0.1-4.1,0.9c0.7,0.2,1.4,0.5,1.8,1.2c0.3,0.6,0.1,1.6-0.6,1.8
				c0.7-0.3,1.6-0.3,2.2,0.1c0.6,0.5,0.8,1.4,0.4,2c0.9,0,1.6-0.6,2.4-0.7c0.9-0.1,1.7,0.5,2.2,1.2c0.5,0.7,0.1,2.3,1,2.4
				c0.8,0.1,1.3-1,2-0.7c0.8,0.2,1.4,0.7,1.9,1.3c1,0.9,1.3,3.1,2.7,3.1c1.5,0,2.7-1.4,3.9-0.6c1.3,0.8,1.2,3.6,2.6,3.5
				c1.5-0.1,2.6-1.6,3.9-0.9c1.4,0.7,1.9,2.9,3.3,2.5c1.8-0.6,1.5-2.7,2.7-3.3c1.2-0.6,4.2-1,5.4-0.3c0.6-1.6,0.7-2.1,2.2-2.8
				c1.6-0.7,0.9,1.1,2.6,1c2.7-0.2,5.5-4.8,7.8-3.4c0-1-0.1-1.3,0.5-2.1c0.6-0.8,1.8-1,2.8-0.9c1,0.1,2.6,1.2,3.1,0.3
				c0.4-0.7-0.2-1.7,0.4-2.2c0.7-0.5,1.7-0.4,2.2,0.3c-0.4-2-2.2-3.5-4-4.3c-4.6-2-9.9-0.7-15,0c-4.8,0.7-9.7,0.8-14.5,0.2
				c-3.1-0.3-6.2-0.9-9.2-0.5c-1.9,0.3-3.8,0.9-5.6,1.3c-1.9,0.4-3.9,0.5-5.7-0.3L13.1,28.9z"/>
		</g>
	</g>
</g>
<g id="XMLID_21402_">
	<g id="XMLID_21403_">
		<g id="XMLID_21404_">
			<path id="XMLID_21405_" class="st14" d="M36.8,11.9C36.8,11.9,36.8,11.9,36.8,11.9c0.4-0.1,0.7-0.1,1.1-0.2c0.1,0,0.1,0,0.2,0
				c0.2,0,0.4,0,0.6-0.1c0.1,0,0.1,0,0.2,0c0.1,0,0.2,0,0.4,0c0.1,0,0.2,0,0.4,0c0.1,0,0.2,0,0.2,0c0.2,0,0.3,0,0.5,0
				c0.1,0,0.2,0,0.2,0c0.1,0,0.3,0,0.4,0c0.1,0,0.2,0,0.3,0c0.1,0,0.3,0,0.4,0c0.1,0,0.2,0,0.3,0c0.1,0,0.3,0,0.4,0.1
				c0.1,0,0.2,0,0.3,0c0.1,0,0.3,0,0.4,0.1c0.1,0,0.2,0,0.3,0.1c0.1,0,0.2,0.1,0.3,0.1c0.1,0,0.2,0.1,0.4,0.1c0.1,0,0.1,0,0.2,0.1
				c0.2,0.1,0.3,0.1,0.5,0.2c0.1,0,0.2,0.1,0.3,0.1c0.1,0,0.1,0,0.2,0.1c0.2,0.1,0.3,0.2,0.5,0.2L45.5,7c-0.2-0.1-0.3-0.2-0.5-0.2
				c-0.1,0-0.1,0-0.2-0.1c-0.1,0-0.1-0.1-0.2-0.1c0,0-0.1,0-0.1,0c-0.2-0.1-0.3-0.1-0.5-0.2c-0.1,0-0.1,0-0.1-0.1c0,0-0.1,0-0.1,0
				c-0.1,0-0.2-0.1-0.4-0.1c-0.1,0-0.2,0-0.2-0.1c0,0,0,0-0.1,0c-0.1,0-0.2,0-0.3-0.1c-0.1,0-0.2,0-0.3-0.1c0,0-0.1,0-0.1,0
				c-0.1,0-0.2,0-0.3,0c-0.1,0-0.2,0-0.2,0c-0.1,0-0.1,0-0.2,0c-0.1,0-0.2,0-0.3,0c-0.1,0-0.1,0-0.2,0c-0.1,0-0.2,0-0.2,0
				c-0.1,0-0.2,0-0.3,0c0,0-0.1,0-0.1,0c-0.1,0-0.2,0-0.3,0c-0.1,0-0.2,0-0.2,0c0,0,0,0-0.1,0c-0.1,0-0.3,0-0.4,0
				c-0.1,0-0.2,0-0.2,0c0,0,0,0,0,0c-0.1,0-0.2,0-0.3,0c-0.1,0-0.2,0-0.4,0c0,0,0,0,0,0c-0.1,0-0.1,0-0.2,0c-0.2,0-0.4,0-0.6,0.1
				c0,0-0.1,0-0.1,0c0,0-0.1,0-0.1,0c-0.3,0-0.7,0.1-1,0.2c0,0,0,0,0,0c0,0,0,0,0,0c-0.3,0.1-0.6,0.2-0.9,0.2c-0.1,0-0.1,0-0.2,0.1
				c-0.3,0.1-0.6,0.2-0.8,0.3l0.1,5.7c0.3-0.1,0.6-0.2,0.8-0.3c0.1,0,0.1,0,0.2-0.1C36.2,12,36.5,11.9,36.8,11.9z"/>
		</g>
	</g>
</g>
<g id="XMLID_21397_">
	<g id="XMLID_21398_">
		<g id="XMLID_21399_">
			<g id="XMLID_21400_">
				<polygon id="XMLID_21401_" class="st14" points="34.7,6.8 34.8,12.5 10.1,23.2 10,17.5 				"/>
			</g>
		</g>
	</g>
</g>
<g id="XMLID_21393_">
	<g id="XMLID_21394_">
		<g id="XMLID_21395_">
			<path id="XMLID_21396_" class="st14" d="M36.8,22.8C36.8,22.8,36.8,22.8,36.8,22.8c0.4-0.1,0.7-0.1,1.1-0.2c0.1,0,0.1,0,0.2,0
				c0.2,0,0.4,0,0.6-0.1c0.1,0,0.1,0,0.2,0c0.1,0,0.2,0,0.4,0c0.1,0,0.2,0,0.4,0c0.1,0,0.2,0,0.2,0c0.2,0,0.3,0,0.5,0
				c0.1,0,0.2,0,0.2,0c0.1,0,0.3,0,0.4,0c0.1,0,0.2,0,0.3,0c0.1,0,0.3,0,0.4,0c0.1,0,0.2,0,0.3,0c0.1,0,0.3,0,0.4,0.1
				c0.1,0,0.2,0,0.3,0c0.1,0,0.3,0,0.4,0.1c0.1,0,0.2,0,0.3,0.1c0.1,0,0.2,0.1,0.3,0.1c0.1,0,0.2,0.1,0.4,0.1c0.1,0,0.1,0,0.2,0.1
				c0.2,0.1,0.3,0.1,0.5,0.2c0.1,0,0.2,0.1,0.3,0.1c0.1,0,0.1,0,0.2,0.1c0.2,0.1,0.3,0.2,0.5,0.2l-0.1-5.7c-0.2-0.1-0.3-0.2-0.5-0.2
				c-0.1,0-0.1,0-0.2-0.1c-0.1,0-0.1-0.1-0.2-0.1c0,0-0.1,0-0.1,0c-0.2-0.1-0.3-0.1-0.5-0.2c-0.1,0-0.1,0-0.1-0.1c0,0-0.1,0-0.1,0
				c-0.1,0-0.2-0.1-0.4-0.1c-0.1,0-0.2,0-0.2-0.1c0,0,0,0-0.1,0c-0.1,0-0.2,0-0.3-0.1c-0.1,0-0.2,0-0.3-0.1c0,0-0.1,0-0.1,0
				c-0.1,0-0.2,0-0.3,0c-0.1,0-0.2,0-0.2,0c-0.1,0-0.1,0-0.2,0c-0.1,0-0.2,0-0.3,0c-0.1,0-0.1,0-0.2,0c-0.1,0-0.2,0-0.2,0
				c-0.1,0-0.2,0-0.3,0c0,0-0.1,0-0.1,0c-0.1,0-0.2,0-0.3,0c-0.1,0-0.2,0-0.2,0c0,0,0,0-0.1,0c-0.1,0-0.3,0-0.4,0
				c-0.1,0-0.2,0-0.2,0c0,0,0,0,0,0c-0.1,0-0.2,0-0.3,0c-0.1,0-0.2,0-0.4,0c0,0,0,0,0,0c-0.1,0-0.1,0-0.2,0c-0.2,0-0.4,0-0.6,0.1
				c0,0-0.1,0-0.1,0c0,0-0.1,0-0.1,0c-0.3,0-0.7,0.1-1,0.2c0,0,0,0,0,0c0,0,0,0,0,0c-0.3,0.1-0.6,0.2-0.9,0.2c-0.1,0-0.1,0-0.2,0.1
				c-0.3,0.1-0.6,0.2-0.8,0.3l0.1,5.7c0.3-0.1,0.6-0.2,0.8-0.3c0.1,0,0.1,0,0.2-0.1C36.2,22.9,36.5,22.9,36.8,22.8z"/>
		</g>
	</g>
</g>
<g id="XMLID_21260_">
	<g id="XMLID_21385_">
		<g id="XMLID_21386_">
			<g id="XMLID_21387_">
				<path id="XMLID_21388_" class="st15" d="M57.8,37c-0.7,0.2-1.3,0.2-1.8,0.1c-0.2,0-0.5,0-0.7,0c-0.8,0-1.6-0.2-2.4-0.5
					c-0.2-0.1-0.4-0.1-0.6-0.2c-0.6-0.2-1.1-0.5-1.6-0.9c-0.5-0.4-0.8-1-1-1.5c-0.1-0.2-0.2-0.4-0.3-0.6c-0.1-0.2-0.2-0.4-0.3-0.6
					c-0.3-0.5-0.5-1.1-0.7-1.7c-0.1-0.7,0-1.3,0-1.9c0-0.2,0.1-0.4,0.1-0.6c0.1-0.8,0.3-1.5,0.7-2.3c0-0.1,0.1-0.2,0.1-0.3
					c0.3-0.6,0.5-1.3,0.9-1.8c0.4-0.6,0.9-1.1,1.5-1.6c0.5-0.4,1-0.8,1.7-1.2c0.2-0.1,0.3-0.2,0.5-0.3c0.4-0.3,0.8-0.6,1.2-0.7
					c0.5-0.2,0.9-0.2,1.3-0.2c0.1,0,0.3,0,0.4-0.1c0.5-0.1,1-0.1,1.6-0.1c0.5,0,1,0.1,1.5,0.2c0.1,0,0.3,0,0.4,0.1
					c0.2,0,0.3,0,0.5,0.1c0.2,0,0.4,0.1,0.5,0.2c0.5,0.2,0.9,0.5,1.3,0.7c0.4,0.3,0.8,0.6,1.2,0.9c0.3,0.3,0.5,0.6,0.8,0.9
					c0.1,0.1,0.1,0.2,0.2,0.3c0.3,0.3,0.6,0.7,1,1.2c0.3,0.4,0.5,0.9,0.7,1.4c0,0.1,0.1,0.1,0.1,0.2c0.2,0.4,0.4,0.8,0.4,1.2
					c0.1,0.5,0.2,1,0.1,1.5c-0.1,0.6-0.3,1.1-0.4,1.5c-0.2,0.4-0.5,0.7-0.8,1c-0.1,0.2-0.3,0.3-0.4,0.4c-0.4,0.6-0.8,1-1.4,1.5
					c-0.1,0.1-0.3,0.2-0.4,0.4c-0.4,0.4-0.8,0.8-1.3,1.1c-0.6,0.4-1.3,0.7-1.9,1c-0.1,0.1-0.2,0.1-0.4,0.2c-0.2,0.1-0.4,0.2-0.6,0.3
					C59.1,36.6,58.5,36.8,57.8,37z"/>
			</g>
		</g>
	</g>
	<g id="XMLID_21381_">
		<g id="XMLID_21382_">
			<g id="XMLID_21383_">
				<path id="XMLID_21384_" class="st16" d="M57.7,36.7c-0.6,0.1-1.2,0.1-1.7,0.1c-0.2,0-0.5,0-0.7,0c-0.8,0-1.5-0.2-2.2-0.5
					c-0.2-0.1-0.4-0.2-0.6-0.2c-0.5-0.2-1-0.4-1.4-0.8c-0.4-0.4-0.7-0.9-0.9-1.3c-0.1-0.2-0.2-0.4-0.3-0.6c-0.1-0.2-0.2-0.4-0.3-0.6
					c-0.3-0.5-0.5-1-0.6-1.5c-0.1-0.6,0-1.2,0-1.8c0-0.2,0-0.4,0.1-0.6c0.1-0.7,0.3-1.4,0.6-2.2c0-0.1,0.1-0.2,0.1-0.3
					c0.2-0.6,0.5-1.2,0.9-1.8c0.4-0.5,0.8-1,1.4-1.6c0.5-0.4,1-0.8,1.6-1.2c0.2-0.1,0.3-0.2,0.5-0.4c0.4-0.3,0.7-0.5,1.1-0.7
					c0.4-0.2,0.8-0.2,1.2-0.2c0.2,0,0.3,0,0.5-0.1c0.5-0.1,1-0.1,1.6-0.1c0.5,0,1,0.1,1.4,0.2c0.1,0,0.3,0,0.5,0.1
					c0.2,0,0.3,0,0.5,0.1c0.2,0,0.4,0.1,0.5,0.1c0.5,0.2,0.9,0.4,1.3,0.7c0.4,0.3,0.8,0.6,1.2,0.9c0.3,0.3,0.5,0.6,0.8,0.9
					c0.1,0.1,0.1,0.2,0.2,0.3c0.3,0.3,0.6,0.7,0.9,1.2c0.3,0.4,0.4,0.9,0.6,1.3c0,0.1,0.1,0.1,0.1,0.2c0.2,0.4,0.3,0.7,0.4,1.2
					c0.1,0.5,0.1,1,0.1,1.4c-0.1,0.5-0.3,1.1-0.4,1.5c-0.1,0.3-0.4,0.6-0.7,1c-0.2,0.2-0.3,0.3-0.4,0.5c-0.4,0.5-0.8,1-1.3,1.4
					c-0.1,0.1-0.3,0.2-0.4,0.4c-0.4,0.4-0.8,0.7-1.3,1.1c-0.6,0.4-1.2,0.7-1.8,0.9c-0.1,0.1-0.2,0.1-0.4,0.2
					c-0.2,0.1-0.4,0.2-0.6,0.3C58.9,36.3,58.4,36.5,57.7,36.7z"/>
			</g>
		</g>
	</g>
	<g id="XMLID_21377_">
		<g id="XMLID_21378_">
			<g id="XMLID_21379_">
				<path id="XMLID_21380_" class="st17" d="M66.3,27.5c0.1,0.5,0.1,0.9,0.1,1.4c-0.1,0.5-0.2,1-0.4,1.4c-0.2,0.5-0.8,0.9-1.1,1.4
					c-0.4,0.5-0.8,0.9-1.3,1.4c-0.5,0.4-0.9,0.9-1.6,1.4c-0.6,0.4-1.4,0.7-2.1,1c-0.7,0.3-1.4,0.7-2.2,0.9c-0.8,0.2-1.5,0.1-2.3,0
					c-0.8,0-1.4-0.2-2.1-0.4c-0.7-0.3-1.4-0.5-1.9-1c-0.5-0.5-0.8-1.2-1.2-1.8c-0.3-0.6-0.8-1.3-0.9-2c-0.1-0.7,0-1.5,0.1-2.2
					c0.1-0.7,0.3-1.4,0.6-2.1c0.3-0.7,0.5-1.4,0.9-1.9c0.4-0.6,0.9-1.1,1.3-1.5c0.5-0.5,1-0.8,1.5-1.2c0.5-0.3,1-0.8,1.6-1
					c0.5-0.2,1.1-0.2,1.6-0.3c0.5-0.1,1-0.1,1.5-0.1c0.5,0,0.9,0.1,1.4,0.2c0.5,0.1,1,0.1,1.4,0.2c0.4,0.2,0.9,0.4,1.2,0.7
					c0.4,0.3,0.8,0.6,1.1,0.9c0.4,0.3,0.6,0.7,0.9,1.1c0.3,0.4,0.6,0.7,0.9,1.1c0.2,0.4,0.4,0.8,0.6,1.3
					C66,26.7,66.3,27.1,66.3,27.5z"/>
			</g>
		</g>
	</g>
	<g id="XMLID_21373_">
		<g id="XMLID_21374_">
			<g id="XMLID_21375_">
				<path id="XMLID_21376_" class="st18" d="M57.6,35c-0.3,0-0.6,0-1,0c-0.3,0-0.5-0.1-0.8-0.1c-0.6,0-1.1-0.2-1.7-0.4
					c-0.2-0.1-0.5-0.2-0.7-0.3c-0.4-0.1-0.7-0.3-0.9-0.4c-0.2-0.2-0.4-0.5-0.6-0.8c-0.1-0.2-0.2-0.4-0.3-0.6
					c-0.1-0.2-0.3-0.5-0.4-0.7c-0.2-0.3-0.4-0.6-0.4-0.8c-0.1-0.3,0-0.7,0-1.2c0-0.2,0-0.4,0-0.6c0-0.5,0.2-1,0.4-1.7
					c0-0.1,0.1-0.2,0.1-0.3c0.2-0.5,0.3-1,0.5-1.3c0.3-0.4,0.6-0.8,1-1.3c0.3-0.4,0.7-0.7,1.2-1c0.2-0.2,0.4-0.3,0.6-0.5
					c0.2-0.2,0.5-0.4,0.6-0.5c0.2-0.1,0.5-0.1,0.8-0.2c0.2,0,0.4-0.1,0.6-0.1c0.4-0.1,0.8-0.1,1.3-0.1c0.4,0,0.7,0.1,1.2,0.1
					c0.2,0,0.4,0,0.6,0.1c0.1,0,0.3,0,0.4,0c0.1,0,0.2,0,0.2,0c0.4,0.2,0.8,0.3,1.1,0.5c0.3,0.2,0.7,0.5,1,0.7
					c0.2,0.2,0.3,0.4,0.5,0.7c0.1,0.1,0.1,0.2,0.2,0.3c0.2,0.3,0.5,0.6,0.7,1c0.2,0.3,0.3,0.7,0.4,1.1c0,0.1,0.1,0.1,0.1,0.2
					c0.1,0.3,0.2,0.6,0.3,0.9c0,0.4,0.1,0.8,0,1.2c-0.1,0.4-0.3,0.9-0.4,1.2c-0.1,0.1-0.2,0.3-0.4,0.5c-0.2,0.2-0.4,0.4-0.6,0.6
					c-0.3,0.4-0.7,0.8-1.1,1.1c-0.2,0.1-0.3,0.3-0.5,0.4c-0.3,0.3-0.6,0.5-0.8,0.7c-0.3,0.2-0.8,0.4-1.3,0.6c-0.1,0-0.2,0.1-0.4,0.1
					c-0.2,0.1-0.4,0.2-0.7,0.3C58.3,34.8,57.9,34.9,57.6,35z"/>
			</g>
		</g>
	</g>
	<g id="XMLID_21369_">
		<g id="XMLID_21370_">
			<g id="XMLID_21371_">
				<path id="XMLID_21372_" class="st19" d="M57.4,32.9c-0.3,0-0.6-0.1-0.9-0.1c-0.4,0-0.7-0.1-1.1-0.3c-0.3-0.1-0.5-0.2-0.8-0.3
					c-0.1,0-0.2-0.1-0.3-0.1c0-0.1-0.1-0.2-0.1-0.2c-0.1-0.2-0.3-0.5-0.4-0.7c-0.2-0.3-0.4-0.5-0.5-0.8c0-0.1-0.1-0.1-0.1-0.2
					c0-0.1,0-0.3,0-0.4c0-0.2,0-0.4,0-0.6c0-0.3,0.1-0.7,0.2-1.1c0-0.1,0-0.2,0.1-0.3c0.1-0.3,0.2-0.7,0.2-0.8
					c0.1-0.3,0.3-0.5,0.6-0.9c0.2-0.2,0.4-0.5,0.8-0.7c0.3-0.2,0.5-0.5,0.7-0.7c0,0,0.1-0.1,0.1-0.1c0.1,0,0.2,0,0.2-0.1
					c0.2,0,0.5-0.1,0.7-0.2c0.2-0.1,0.5-0.1,0.9-0.2c0.2,0,0.6,0,0.9,0.1c0.3,0,0.6,0,0.8,0c0.1,0,0.2,0,0.3,0
					c0.3,0.1,0.5,0.2,0.7,0.3c0.2,0.1,0.5,0.3,0.7,0.5c0.1,0.1,0.2,0.2,0.3,0.4c0.1,0.1,0.2,0.2,0.3,0.3c0.2,0.2,0.4,0.5,0.5,0.7
					c0.1,0.2,0.2,0.6,0.2,0.8c0,0.1,0,0.2,0.1,0.2c0.1,0.2,0.1,0.5,0.1,0.6c0,0.2,0,0.7,0,0.9c-0.1,0.2-0.2,0.5-0.3,0.7
					c0,0-0.1,0.1-0.1,0.1c-0.2,0.2-0.5,0.5-0.8,0.8c-0.3,0.3-0.5,0.5-0.7,0.7c-0.2,0.1-0.4,0.3-0.5,0.4c-0.1,0.1-0.3,0.2-0.4,0.3
					c-0.1,0.1-0.5,0.2-0.7,0.3c-0.1,0-0.2,0.1-0.4,0.1c-0.3,0.1-0.5,0.2-0.8,0.3c-0.1,0-0.2,0.1-0.3,0.1
					C57.5,32.9,57.4,32.9,57.4,32.9z"/>
			</g>
		</g>
	</g>
	<g id="XMLID_21365_">
		<g id="XMLID_21366_">
			<g id="XMLID_21367_">
				<path id="XMLID_21368_" class="st20" d="M54.9,22.8c-0.8-0.3,0.8-1.3,1.2-1c0.4,0.3,0.3,0.9-0.3,1.1
					C55.4,23.1,55.3,22.7,54.9,22.8C54.9,22.8,54.9,22.8,54.9,22.8z"/>
			</g>
		</g>
	</g>
	<g id="XMLID_21361_">
		<g id="XMLID_21362_">
			<g id="XMLID_21363_">
				<path id="XMLID_21364_" class="st20" d="M58.5,21.9c0.6-0.6,1.2,0,0.8,0.5c-0.2,0.2-0.8,0.3-1,0.1C58,22.2,58.3,22,58.5,21.9z"
					/>
			</g>
		</g>
	</g>
	<g id="XMLID_21357_">
		<g id="XMLID_21358_">
			<g id="XMLID_21359_">
				<path id="XMLID_21360_" class="st21" d="M56.9,23.3c-0.9,0.2-0.7,1.1-0.6,1.8c0.2,1.3,1.8-1.9,0.4-1.7"/>
			</g>
		</g>
	</g>
	<g id="XMLID_21353_">
		<g id="XMLID_21354_">
			<g id="XMLID_21355_">
				<path id="XMLID_21356_" class="st21" d="M53.8,24.6c-0.2-0.7-1.9,1-1,1.4c0.7,0.3,0.8-0.7,0.9-1.2
					C53.7,24.8,53.8,24.7,53.8,24.6z"/>
			</g>
		</g>
	</g>
	<g id="XMLID_21349_">
		<g id="XMLID_21350_">
			<g id="XMLID_21351_">
				<path id="XMLID_21352_" class="st22" d="M61.9,24c-1.1-0.2-0.8,1.7,0.4,1C63.1,24.6,61.9,24,61.9,24z"/>
			</g>
		</g>
	</g>
	<g id="XMLID_21345_">
		<g id="XMLID_21346_">
			<g id="XMLID_21347_">
				<path id="XMLID_21348_" class="st20" d="M62.7,26.6c-0.3,0.9-0.2,1.1,0.6,1.7c1.5,1,0.6-2-0.4-1.9
					C62.8,26.5,62.7,26.6,62.7,26.6z"/>
			</g>
		</g>
	</g>
	<g id="XMLID_21341_">
		<g id="XMLID_21342_">
			<g id="XMLID_21343_">
				<path id="XMLID_21344_" class="st20" d="M57.8,29.1c0-0.7,0.9-1.8,1.4-1c0.4,0.5-1,1.5-1.4,1.3C57.8,29.4,57.8,29.2,57.8,29.1z"
					/>
			</g>
		</g>
	</g>
	<g id="XMLID_21337_">
		<g id="XMLID_21338_">
			<g id="XMLID_21339_">
				<path id="XMLID_21340_" class="st20" d="M56,27.4c0.3-0.7,0.9,0.1,0.5,0.5c-0.3,0.3-0.6,0.1-0.5-0.3C56,27.5,56,27.4,56,27.4z"
					/>
			</g>
		</g>
	</g>
	<g id="XMLID_21333_">
		<g id="XMLID_21334_">
			<g id="XMLID_21335_">
				<path id="XMLID_21336_" class="st20" d="M59,26c0.6,0.2,1.1-0.9,0.4-0.8C59.3,25.2,58.3,25.7,59,26z"/>
			</g>
		</g>
	</g>
	<g id="XMLID_21329_">
		<g id="XMLID_21330_">
			<g id="XMLID_21331_">
				<path id="XMLID_21332_" class="st22" d="M60.9,22.4c-0.5-0.4-1.1,0.3-0.5,0.6c0.3,0.2,0.7,0,0.6-0.5
					C61,22.5,60.9,22.4,60.9,22.4z"/>
			</g>
		</g>
	</g>
	<g id="XMLID_21325_">
		<g id="XMLID_21326_">
			<g id="XMLID_21327_">
				<path id="XMLID_21328_" class="st20" d="M52.8,27.9c-2.1,0.2,0.2,2.5,1,1.6c0.7-0.9,0-1.7-0.7-1.5C53.1,28,52.9,27.9,52.8,27.9z
					"/>
			</g>
		</g>
	</g>
	<g id="XMLID_21321_">
		<g id="XMLID_21322_">
			<g id="XMLID_21323_">
				<path id="XMLID_21324_" class="st21" d="M53.8,32.3c0-1.2-2.7-1.5-2.2-0.5C51.8,32.4,53.9,34.3,53.8,32.3z"/>
			</g>
		</g>
	</g>
	<g id="XMLID_21317_">
		<g id="XMLID_21318_">
			<g id="XMLID_21319_">
				<path id="XMLID_21320_" class="st22" d="M55.5,30.5c0.6,0,0.5-0.9,0.1-0.8C55.4,29.6,54.9,30.5,55.5,30.5z"/>
			</g>
		</g>
	</g>
	<g id="XMLID_21313_">
		<g id="XMLID_21314_">
			<g id="XMLID_21315_">
				<path id="XMLID_21316_" class="st21" d="M60,30.4c0.6-0.1,0.4-0.8,0.2-0.8C59.9,29.6,58.9,30.7,60,30.4z"/>
			</g>
		</g>
	</g>
	<g id="XMLID_21309_">
		<g id="XMLID_21310_">
			<g id="XMLID_21311_">
				<path id="XMLID_21312_" class="st20" d="M60.9,27.5c0.7-0.1,0.6-1.3,0-0.9C60.6,26.7,60.3,27.6,60.9,27.5z"/>
			</g>
		</g>
	</g>
	<g id="XMLID_21305_">
		<g id="XMLID_21306_">
			<g id="XMLID_21307_">
				<path id="XMLID_21308_" class="st21" d="M63.4,31.8c0.7-0.5,0.1-1.3-0.5-1C62.6,31,62.1,32.6,63.4,31.8z"/>
			</g>
		</g>
	</g>
	<g id="XMLID_21301_">
		<g id="XMLID_21302_">
			<g id="XMLID_21303_">
				<path id="XMLID_21304_" class="st20" d="M59.2,31.9c-0.7,0.3-0.2,0.7,0.4,0.6c0.8-0.2,0.4-0.7-0.2-0.6
					C59.3,31.9,59.3,31.9,59.2,31.9z"/>
			</g>
		</g>
	</g>
	<g id="XMLID_21297_">
		<g id="XMLID_21298_">
			<g id="XMLID_21299_">
				<path id="XMLID_21300_" class="st20" d="M56.3,31.1c-0.3,0.3-0.6,0.9-0.3,1.2c0.6,0.6,1.1-1.4,0.4-1.3
					C56.3,31,56.3,31.1,56.3,31.1z"/>
			</g>
		</g>
	</g>
	<g id="XMLID_21293_">
		<g id="XMLID_21294_">
			<g id="XMLID_21295_">
				<path id="XMLID_21296_" class="st22" d="M57,33.7c-0.3,0.4-0.7,2.1,0.1,1.6C57.8,34.9,57.5,33.6,57,33.7
					C57.1,33.6,57,33.6,57,33.7z"/>
			</g>
		</g>
	</g>
	<g id="XMLID_21289_">
		<g id="XMLID_21290_">
			<g id="XMLID_21291_">
				<path id="XMLID_21292_" class="st20" d="M60.4,33.9c0.6-0.1,1.5-0.8,1.5-1.1c-0.2,0-0.4,0-0.6,0.1
					C61.4,32.8,58.8,34.1,60.4,33.9z"/>
			</g>
		</g>
	</g>
	<g id="XMLID_21285_">
		<g id="XMLID_21286_">
			<g id="XMLID_21287_">
				<path id="XMLID_21288_" class="st21" d="M64.1,25.3c-0.2,0.3,0.1,0.7,0.5,0.5c0.4-0.3,0-0.8-0.4-0.6
					C64.1,25.2,64.1,25.2,64.1,25.3z"/>
			</g>
		</g>
	</g>
	<g id="XMLID_21281_">
		<g id="XMLID_21282_">
			<g id="XMLID_21283_">
				<path id="XMLID_21284_" class="st22" d="M62,28.5c-0.1,0-0.6,1.3-0.2,1.4c0.8,0.1,0.5-1.3,0.4-1.4C62.1,28.5,62,28.5,62,28.5z"
					/>
			</g>
		</g>
	</g>
	<g id="XMLID_21277_">
		<g id="XMLID_21278_">
			<g id="XMLID_21279_">
				<path id="XMLID_21280_" class="st22" d="M51.1,28.7c0.6,0.1,1-1,0.9-1.4c0-0.3-0.4-0.2-0.6-0.1C51.1,27.4,50.3,28.5,51.1,28.7z"
					/>
			</g>
		</g>
	</g>
	<g id="XMLID_21273_">
		<g id="XMLID_21274_">
			<g id="XMLID_21275_">
				<path id="XMLID_21276_" class="st22" d="M65.2,28.9c-2.1,0.8,1,0.7,0.1,0C65.3,28.9,65.2,28.9,65.2,28.9z"/>
			</g>
		</g>
	</g>
	<g id="XMLID_21269_">
		<g id="XMLID_21270_">
			<g id="XMLID_21271_">
				<path id="XMLID_21272_" class="st20" d="M53.8,33.7c-1.3-0.3-1.4,0.9-0.1,0.9c1,0,1.2-0.9,0.2-0.9
					C53.9,33.7,53.9,33.7,53.8,33.7z"/>
			</g>
		</g>
	</g>
	<g id="XMLID_21265_">
		<g id="XMLID_21266_">
			<g id="XMLID_21267_">
				<path id="XMLID_21268_" class="st20" d="M55.1,26c-0.6-1-0.3,1.7,0,0.4C55.2,26.3,55.1,26.1,55.1,26z"/>
			</g>
		</g>
	</g>
	<g id="XMLID_21261_">
		<g id="XMLID_21262_">
			<g id="XMLID_21263_">
				<path id="XMLID_21264_" class="st22" d="M57.7,26.3c-0.4,0-0.9,0.6-0.3,0.7C57.8,27.1,58,26.6,57.7,26.3
					C57.7,26.3,57.7,26.3,57.7,26.3z"/>
			</g>
		</g>
	</g>
</g>
<g id="XMLID_20977_">
	<g id="XMLID_21127_">
		<g id="XMLID_21128_">
			<g id="XMLID_21129_">
				<path id="XMLID_21130_" class="st15" d="M28,41.4c-0.6-0.2-1.2-0.5-1.6-0.8c-0.2-0.1-0.4-0.3-0.6-0.4c-0.7-0.4-1.3-0.9-1.9-1.5
					c-0.1-0.1-0.3-0.3-0.4-0.4c-0.4-0.4-0.8-0.8-1.1-1.3c-0.3-0.5-0.4-0.9-0.5-1.3c0-0.2-0.1-0.3-0.1-0.5c0-0.2-0.1-0.3-0.2-0.5
					c-0.1-0.4-0.3-0.9-0.3-1.3c0-0.4,0.2-0.8,0.3-1.1c0-0.1,0.1-0.2,0.1-0.3c0.2-0.4,0.4-0.8,0.8-1.2c0,0,0.1-0.1,0.1-0.1
					c0.3-0.3,0.5-0.6,0.9-0.8c0.4-0.2,0.8-0.4,1.3-0.6c0.4-0.2,0.9-0.3,1.5-0.4c0.1,0,0.3-0.1,0.4-0.1c0.3-0.1,0.7-0.2,1.1-0.2
					c0.4,0,0.8,0.1,1.1,0.1c0.1,0,0.3,0,0.4,0c0.4,0,0.9,0.1,1.5,0.2c0.5,0.1,1,0.3,1.4,0.4c0.1,0,0.3,0.1,0.4,0.1
					c0.2,0,0.3,0.1,0.5,0.1c0.2,0.1,0.4,0.1,0.5,0.2c0.5,0.2,0.9,0.5,1.3,0.7c0.4,0.3,0.8,0.6,1.2,0.9c0.3,0.3,0.6,0.6,0.8,0.9
					c0.1,0.1,0.1,0.2,0.2,0.2c0.3,0.3,0.6,0.7,0.9,1.2c0.3,0.4,0.4,0.9,0.6,1.3c0,0.1,0,0.1,0.1,0.2c0.1,0.4,0.3,0.8,0.3,1.2
					c0,0.5,0,1-0.1,1.4c-0.2,0.5-0.5,1-0.7,1.4c-0.2,0.3-0.6,0.6-1,0.8c-0.2,0.1-0.4,0.2-0.5,0.3c-0.6,0.4-1.1,0.7-1.7,0.9
					c-0.2,0.1-0.3,0.1-0.5,0.2c-0.5,0.2-1,0.3-1.6,0.4c-0.7,0.1-1.4,0-2.1-0.1c-0.1,0-0.2,0-0.4,0c-0.2,0-0.4,0-0.6-0.1
					C29.3,41.7,28.7,41.6,28,41.4z"/>
			</g>
		</g>
	</g>
	<g id="XMLID_21123_">
		<g id="XMLID_21124_">
			<g id="XMLID_21125_">
				<path id="XMLID_21126_" class="st16" d="M28.1,41.2c-0.6-0.2-1-0.5-1.5-0.8c-0.2-0.1-0.4-0.3-0.6-0.4c-0.7-0.4-1.2-0.9-1.8-1.4
					c-0.2-0.2-0.3-0.3-0.5-0.4c-0.4-0.4-0.8-0.7-1-1.2c-0.3-0.4-0.4-0.8-0.5-1.2c0-0.2-0.1-0.3-0.1-0.5c-0.1-0.2-0.1-0.3-0.2-0.5
					c-0.1-0.4-0.3-0.8-0.3-1.2c0-0.4,0.1-0.7,0.3-1.1c0-0.1,0.1-0.2,0.1-0.3c0.2-0.4,0.4-0.8,0.7-1.1c0,0,0.1-0.1,0.1-0.1
					c0.3-0.3,0.5-0.6,0.9-0.8c0.3-0.2,0.8-0.4,1.3-0.6c0.4-0.2,0.9-0.3,1.4-0.4c0.1,0,0.3-0.1,0.5-0.1c0.3-0.1,0.6-0.2,1-0.2
					c0.4,0,0.7,0,1.1,0.1c0.1,0,0.3,0,0.4,0.1c0.4,0,0.9,0.1,1.4,0.2c0.5,0.1,0.9,0.3,1.3,0.4c0.1,0,0.3,0.1,0.4,0.1
					c0.2,0,0.3,0.1,0.5,0.1c0.2,0.1,0.3,0.1,0.5,0.2c0.5,0.2,0.9,0.5,1.3,0.7c0.4,0.3,0.8,0.6,1.2,0.9c0.3,0.3,0.5,0.6,0.8,0.9
					c0.1,0.1,0.1,0.2,0.2,0.2c0.3,0.3,0.6,0.7,0.9,1.2c0.3,0.4,0.4,0.9,0.6,1.3c0,0.1,0,0.1,0.1,0.2c0.1,0.4,0.3,0.7,0.3,1.1
					c0,0.5,0,0.9-0.1,1.4c-0.2,0.5-0.5,1-0.7,1.3c-0.2,0.3-0.6,0.5-0.9,0.7c-0.2,0.1-0.4,0.2-0.5,0.3c-0.5,0.4-1.1,0.6-1.6,0.8
					c-0.2,0.1-0.3,0.1-0.5,0.2c-0.4,0.2-0.9,0.3-1.5,0.4c-0.6,0.1-1.3,0-2-0.1c-0.1,0-0.2,0-0.4,0c-0.2,0-0.4,0-0.6-0.1
					C29.3,41.5,28.7,41.4,28.1,41.2z"/>
			</g>
		</g>
	</g>
	<g id="XMLID_21119_">
		<g id="XMLID_21120_">
			<g id="XMLID_21121_">
				<path id="XMLID_21122_" class="st17" d="M38.3,36.7c0,0.4,0,0.9-0.1,1.3c-0.1,0.4-0.4,0.9-0.7,1.2c-0.3,0.4-0.9,0.6-1.4,1
					c-0.5,0.3-1,0.6-1.6,0.8c-0.6,0.2-1.2,0.4-1.9,0.5c-0.7,0.1-1.5,0-2.2-0.1c-0.7-0.1-1.5-0.2-2.2-0.4c-0.7-0.3-1.4-0.7-2-1.1
					c-0.7-0.4-1.2-0.8-1.7-1.3c-0.5-0.5-1.1-1-1.4-1.5c-0.3-0.5-0.4-1.1-0.6-1.6c-0.2-0.5-0.5-1.1-0.4-1.6c0-0.5,0.2-0.9,0.4-1.3
					c0.2-0.4,0.4-0.7,0.7-1.1c0.3-0.3,0.5-0.7,0.9-0.9c0.4-0.2,0.8-0.4,1.2-0.6c0.4-0.2,0.9-0.3,1.3-0.4c0.5-0.1,0.9-0.3,1.4-0.3
					c0.5,0,1,0.1,1.4,0.1c0.5,0,0.9,0.1,1.4,0.2c0.4,0.1,0.9,0.2,1.3,0.4c0.4,0.2,0.9,0.2,1.3,0.4c0.4,0.2,0.8,0.4,1.2,0.7
					c0.4,0.3,0.8,0.6,1.1,0.9c0.4,0.3,0.6,0.7,0.9,1.1c0.3,0.4,0.6,0.7,0.9,1.1c0.2,0.4,0.4,0.8,0.5,1.2
					C38.1,35.8,38.3,36.2,38.3,36.7z"/>
			</g>
		</g>
	</g>
	<g id="XMLID_21115_">
		<g id="XMLID_21116_">
			<g id="XMLID_21117_">
				<path id="XMLID_21118_" class="st18" d="M28.5,40c-0.2-0.1-0.5-0.3-0.9-0.5c-0.2-0.1-0.5-0.3-0.7-0.4c-0.5-0.3-0.9-0.6-1.4-1
					c-0.2-0.2-0.4-0.3-0.5-0.5c-0.3-0.2-0.5-0.5-0.7-0.7c-0.1-0.2-0.2-0.5-0.3-0.7C24,36,24,35.8,23.9,35.6
					c-0.1-0.2-0.2-0.4-0.2-0.6c-0.1-0.3-0.2-0.5-0.2-0.7c0-0.2,0.1-0.5,0.2-0.7c0-0.1,0.1-0.2,0.1-0.4c0.1-0.3,0.3-0.6,0.5-0.9
					c0,0,0.1-0.1,0.1-0.1c0.2-0.3,0.4-0.5,0.6-0.7c0.2-0.2,0.6-0.4,1-0.5c0.3-0.1,0.7-0.2,1.1-0.3c0.2,0,0.4-0.1,0.6-0.2
					c0.2-0.1,0.4-0.2,0.6-0.2c0.2,0,0.4,0,0.7,0.1c0.2,0,0.3,0,0.5,0.1c0.3,0,0.7,0.1,1.2,0.2c0.3,0.1,0.7,0.2,1.1,0.4
					c0.2,0.1,0.4,0.1,0.6,0.2c0.1,0,0.3,0.1,0.4,0.1c0.1,0,0.2,0.1,0.2,0.1c0.4,0.2,0.8,0.4,1.1,0.6c0.3,0.2,0.7,0.5,1,0.8
					c0.2,0.2,0.3,0.4,0.5,0.6c0.1,0.1,0.1,0.2,0.2,0.3c0.2,0.3,0.5,0.6,0.7,1c0.2,0.3,0.3,0.7,0.4,1c0,0.1,0,0.1,0.1,0.2
					c0.1,0.3,0.2,0.6,0.2,0.9c0,0.4,0,0.8-0.2,1.1c-0.1,0.4-0.4,0.7-0.6,1c-0.1,0.1-0.3,0.2-0.5,0.3c-0.2,0.1-0.4,0.2-0.7,0.4
					c-0.4,0.3-0.8,0.5-1.3,0.6c-0.2,0.1-0.4,0.1-0.5,0.2c-0.4,0.1-0.7,0.2-1,0.2c-0.4,0-0.8,0-1.4-0.1c-0.1,0-0.2,0-0.4,0
					c-0.2,0-0.5-0.1-0.7-0.1C29.2,40.1,28.8,40.1,28.5,40z"/>
			</g>
		</g>
	</g>
	<g id="XMLID_21111_">
		<g id="XMLID_21112_">
			<g id="XMLID_21113_">
				<path id="XMLID_21114_" class="st19" d="M28.9,38.4c-0.2-0.1-0.5-0.3-0.8-0.5c-0.3-0.2-0.6-0.4-0.9-0.6
					c-0.2-0.2-0.4-0.4-0.6-0.5c-0.1-0.1-0.1-0.1-0.2-0.2c0-0.1-0.1-0.1-0.1-0.2c-0.1-0.2-0.2-0.4-0.2-0.6c-0.1-0.3-0.2-0.5-0.3-0.7
					c0-0.1-0.1-0.1-0.1-0.2c0-0.1,0-0.2,0.1-0.3c0-0.1,0.1-0.3,0.1-0.4c0-0.2,0.2-0.4,0.3-0.7c0-0.1,0.1-0.1,0.1-0.2
					c0.1-0.2,0.2-0.4,0.3-0.5c0.1-0.1,0.3-0.3,0.6-0.4c0.2-0.1,0.4-0.2,0.7-0.3c0.3-0.1,0.5-0.2,0.7-0.3c0,0,0.1,0,0.1,0
					c0.1,0,0.2,0,0.2,0c0.2,0,0.4,0,0.6,0.1c0.2,0,0.5,0.1,0.9,0.1c0.2,0,0.5,0.2,0.8,0.3c0.3,0.1,0.5,0.2,0.7,0.2
					c0.1,0,0.2,0,0.2,0.1c0.3,0.1,0.5,0.3,0.7,0.4c0.2,0.2,0.5,0.4,0.7,0.6c0.1,0.1,0.2,0.2,0.2,0.4c0.1,0.1,0.2,0.2,0.2,0.3
					c0.1,0.2,0.3,0.5,0.4,0.7c0.1,0.2,0.1,0.5,0.2,0.7c0,0.1,0,0.1,0,0.2c0,0.2,0.1,0.4,0.1,0.5c0,0.2-0.1,0.6-0.2,0.7
					c-0.1,0.2-0.3,0.4-0.4,0.5c0,0-0.1,0-0.1,0.1c-0.2,0.1-0.5,0.2-0.9,0.4c-0.3,0.2-0.6,0.3-0.9,0.3c-0.2,0.1-0.4,0.1-0.6,0.2
					c-0.1,0-0.3,0.1-0.4,0.1c-0.1,0-0.5,0-0.7-0.1c-0.1,0-0.2,0-0.4-0.1c-0.3,0-0.5-0.1-0.8-0.1c-0.1,0-0.2,0-0.3-0.1
					C29,38.5,29,38.4,28.9,38.4z"/>
			</g>
		</g>
	</g>
	<g id="XMLID_21107_">
		<g id="XMLID_21108_">
			<g id="XMLID_21109_">
				<path id="XMLID_21110_" class="st20" d="M27.7,30.3c-0.7-0.5,0.7-0.7,1.1-0.4c0.3,0.3,0.3,0.7-0.2,0.7
					C28.2,30.7,28.1,30.3,27.7,30.3C27.7,30.3,27.7,30.3,27.7,30.3z"/>
			</g>
		</g>
	</g>
	<g id="XMLID_21103_">
		<g id="XMLID_21104_">
			<g id="XMLID_21105_">
				<path id="XMLID_21106_" class="st20" d="M31,30.5c0.5-0.4,1.1,0.3,0.8,0.5c-0.2,0.1-0.7,0.1-0.9-0.1
					C30.5,30.6,30.9,30.5,31,30.5z"/>
			</g>
		</g>
	</g>
	<g id="XMLID_21099_">
		<g id="XMLID_21100_">
			<g id="XMLID_21101_">
				<path id="XMLID_21102_" class="st21" d="M29.6,31.2c-0.9,0-0.7,0.6-0.6,1.1c0.2,1.1,1.7-1,0.4-1.2"/>
			</g>
		</g>
	</g>
	<g id="XMLID_21095_">
		<g id="XMLID_21096_">
			<g id="XMLID_21097_">
				<path id="XMLID_21098_" class="st21" d="M26.7,31.2c-0.2-0.6-1.8,0-0.9,0.6c0.6,0.4,0.7-0.2,0.9-0.5
					C26.6,31.3,26.7,31.3,26.7,31.2z"/>
			</g>
		</g>
	</g>
	<g id="XMLID_21091_">
		<g id="XMLID_21092_">
			<g id="XMLID_21093_">
				<path id="XMLID_21094_" class="st22" d="M34.2,32.8c-1.1-0.4-0.8,1.2,0.4,0.9C35.4,33.5,34.2,32.8,34.2,32.8z"/>
			</g>
		</g>
	</g>
	<g id="XMLID_21087_">
		<g id="XMLID_21088_">
			<g id="XMLID_21089_">
				<path id="XMLID_21090_" class="st20" d="M34.9,35.2c-0.4,0.7-0.3,0.9,0.4,1.6c1.3,1.3,0.9-1.6-0.2-1.7
					C35,35.1,35,35.1,34.9,35.2z"/>
			</g>
		</g>
	</g>
	<g id="XMLID_21083_">
		<g id="XMLID_21084_">
			<g id="XMLID_21085_">
				<path id="XMLID_21086_" class="st20" d="M30.1,35.8c0.1-0.5,1.1-1.1,1.5-0.3c0.3,0.5-1.2,0.9-1.5,0.5
					C30,35.9,30.1,35.8,30.1,35.8z"/>
			</g>
		</g>
	</g>
	<g id="XMLID_21079_">
		<g id="XMLID_21080_">
			<g id="XMLID_21081_">
				<path id="XMLID_21082_" class="st20" d="M28.6,33.9c0.4-0.4,0.8,0.4,0.4,0.5c-0.3,0.1-0.6-0.1-0.5-0.4
					C28.6,34,28.6,33.9,28.6,33.9z"/>
			</g>
		</g>
	</g>
	<g id="XMLID_21075_">
		<g id="XMLID_21076_">
			<g id="XMLID_21077_">
				<path id="XMLID_21078_" class="st20" d="M31.5,33.7c0.5,0.3,1.1-0.5,0.5-0.5C31.8,33.2,30.8,33.3,31.5,33.7z"/>
			</g>
		</g>
	</g>
	<g id="XMLID_21071_">
		<g id="XMLID_21072_">
			<g id="XMLID_21073_">
				<path id="XMLID_21074_" class="st22" d="M33.3,31.3c-0.5-0.4-1,0-0.5,0.4c0.3,0.2,0.7,0.1,0.5-0.3
					C33.3,31.4,33.3,31.3,33.3,31.3z"/>
			</g>
		</g>
	</g>
	<g id="XMLID_21067_">
		<g id="XMLID_21068_">
			<g id="XMLID_21069_">
				<path id="XMLID_21070_" class="st20" d="M25.6,33.2c-1.9-0.6-0.1,1.7,0.7,1.4c0.8-0.3,0.2-1.1-0.5-1.3
					C25.8,33.3,25.7,33.2,25.6,33.2z"/>
			</g>
		</g>
	</g>
	<g id="XMLID_21063_">
		<g id="XMLID_21064_">
			<g id="XMLID_21065_">
				<path id="XMLID_21066_" class="st21" d="M25.8,36.5c0.2-0.8-2.2-2.1-1.9-1.2C24.1,35.7,25.5,37.8,25.8,36.5z"/>
			</g>
		</g>
	</g>
	<g id="XMLID_21059_">
		<g id="XMLID_21060_">
			<g id="XMLID_21061_">
				<path id="XMLID_21062_" class="st22" d="M27.7,35.9c0.5,0.2,0.6-0.4,0.2-0.5C27.7,35.3,27.1,35.7,27.7,35.9z"/>
			</g>
		</g>
	</g>
	<g id="XMLID_21055_">
		<g id="XMLID_21056_">
			<g id="XMLID_21057_">
				<path id="XMLID_21058_" class="st21" d="M31.8,37.5c0.6,0.1,0.5-0.5,0.3-0.6C32,36.9,30.8,37.3,31.8,37.5z"/>
			</g>
		</g>
	</g>
	<g id="XMLID_21051_">
		<g id="XMLID_21052_">
			<g id="XMLID_21053_">
				<path id="XMLID_21054_" class="st20" d="M33.1,35.4c0.7,0.1,0.7-0.9,0-0.7C33,34.7,32.6,35.3,33.1,35.4z"/>
			</g>
		</g>
	</g>
	<g id="XMLID_21022_">
		<g id="XMLID_21023_">
			<g id="XMLID_21049_">
				<path id="XMLID_21050_" class="st21" d="M34.8,39.8c0.8-0.2,0.5-1.1-0.2-1C34.2,38.8,33.4,40,34.8,39.8z"/>
			</g>
		</g>
	</g>
	<g id="XMLID_21018_">
		<g id="XMLID_21019_">
			<g id="XMLID_21020_">
				<path id="XMLID_21021_" class="st20" d="M30.8,38.4c-0.7-0.1-0.3,0.5,0.2,0.6c0.8,0.1,0.5-0.4,0-0.5
					C30.9,38.4,30.9,38.4,30.8,38.4z"/>
			</g>
		</g>
	</g>
	<g id="XMLID_21014_">
		<g id="XMLID_21015_">
			<g id="XMLID_21016_">
				<path id="XMLID_21017_" class="st20" d="M28.3,36.7c-0.3,0.1-0.7,0.4-0.5,0.7c0.4,0.7,1.3-0.6,0.7-0.8
					C28.4,36.6,28.3,36.7,28.3,36.7z"/>
			</g>
		</g>
	</g>
	<g id="XMLID_21010_">
		<g id="XMLID_21011_">
			<g id="XMLID_21012_">
				<path id="XMLID_21013_" class="st22" d="M28.4,38.8c-0.4,0.1-1.2,1.1-0.4,1.2C28.7,40,28.8,39,28.4,38.8
					C28.4,38.7,28.4,38.8,28.4,38.8z"/>
			</g>
		</g>
	</g>
	<g id="XMLID_21006_">
		<g id="XMLID_21007_">
			<g id="XMLID_21008_">
				<path id="XMLID_21009_" class="st20" d="M31.4,40.4c0.5,0.2,1.6,0,1.7-0.3C33,40,32.8,40,32.6,39.9C32.6,40,29.9,39.9,31.4,40.4
					z"/>
			</g>
		</g>
	</g>
	<g id="XMLID_21002_">
		<g id="XMLID_21003_">
			<g id="XMLID_21004_">
				<path id="XMLID_21005_" class="st21" d="M36.3,34.3c-0.2,0.2,0.1,0.7,0.4,0.5c0.4-0.2,0-0.7-0.4-0.6
					C36.4,34.2,36.3,34.2,36.3,34.3z"/>
			</g>
		</g>
	</g>
	<g id="XMLID_20998_">
		<g id="XMLID_20999_">
			<g id="XMLID_21000_">
				<path id="XMLID_21001_" class="st22" d="M34,36.6c-0.1,0-0.8,0.9-0.4,1.1c0.7,0.3,0.7-0.9,0.6-1.1C34.2,36.6,34.1,36.6,34,36.6z
					"/>
			</g>
		</g>
	</g>
	<g id="XMLID_20994_">
		<g id="XMLID_20995_">
			<g id="XMLID_20996_">
				<path id="XMLID_20997_" class="st22" d="M23.9,33c0.5,0.3,1-0.3,0.9-0.6c0-0.2-0.3-0.3-0.5-0.3C24.1,32.2,23.3,32.6,23.9,33z"/>
			</g>
		</g>
	</g>
	<g id="XMLID_20990_">
		<g id="XMLID_20991_">
			<g id="XMLID_20992_">
				<path id="XMLID_20993_" class="st22" d="M37,37.7c-2.1,0.3,0.8,0.8,0.1,0C37.2,37.7,37.1,37.7,37,37.7z"/>
			</g>
		</g>
	</g>
	<g id="XMLID_20986_">
		<g id="XMLID_20987_">
			<g id="XMLID_20988_">
				<path id="XMLID_20989_" class="st20" d="M25.5,37.4c-1.1-0.8-1.5-0.1-0.3,0.5c0.9,0.4,1.3,0,0.4-0.5
					C25.6,37.4,25.6,37.4,25.5,37.4z"/>
			</g>
		</g>
	</g>
	<g id="XMLID_20982_">
		<g id="XMLID_20983_">
			<g id="XMLID_20984_">
				<path id="XMLID_20985_" class="st20" d="M27.9,32.6c-0.5-0.9-0.4,1.1,0,0.3C27.9,32.8,27.9,32.7,27.9,32.6z"/>
			</g>
		</g>
	</g>
	<g id="XMLID_20978_">
		<g id="XMLID_20979_">
			<g id="XMLID_20980_">
				<path id="XMLID_20981_" class="st22" d="M30.2,33.6c-0.3-0.1-0.8,0.2-0.4,0.4C30.3,34.2,30.5,33.9,30.2,33.6
					C30.3,33.6,30.2,33.6,30.2,33.6z"/>
			</g>
		</g>
	</g>
</g>
<g id="XMLID_20848_">
	<g id="XMLID_20973_">
		<g id="XMLID_20974_">
			<g id="XMLID_20975_">
				<path id="XMLID_20976_" class="st15" d="M17.3,36.9c-0.6-0.2-1.2-0.5-1.7-0.8c-0.2-0.1-0.4-0.3-0.6-0.4c-0.7-0.5-1.4-1.1-2-1.8
					c-0.2-0.2-0.3-0.4-0.5-0.6c-0.4-0.5-0.9-1.1-1.2-1.8c-0.3-0.7-0.5-1.4-0.6-2c0-0.2-0.1-0.5-0.1-0.7c0-0.2-0.1-0.5-0.1-0.7
					c-0.1-0.6-0.2-1.3-0.2-2c0.1-0.7,0.3-1.2,0.4-1.7c0.1-0.1,0.1-0.3,0.2-0.5c0.2-0.6,0.6-1.1,1-1.6c0-0.1,0.1-0.1,0.1-0.2
					c0.3-0.4,0.7-0.8,1.1-1.1c0.4-0.3,0.8-0.4,1.4-0.6c0.4-0.1,0.9-0.2,1.4-0.2c0.1,0,0.3,0,0.4,0c0.3-0.1,0.7-0.1,1-0.1
					c0.4,0.1,0.7,0.2,1,0.4c0.1,0.1,0.2,0.1,0.3,0.1c0.4,0.1,0.8,0.3,1.2,0.6c0.4,0.2,0.8,0.5,1.1,0.8c0.1,0.1,0.2,0.1,0.3,0.2
					c0.1,0.1,0.3,0.2,0.4,0.2c0.2,0.1,0.3,0.2,0.4,0.3c0.4,0.4,0.7,0.7,1,1c0.3,0.4,0.6,0.8,0.9,1.1c0.3,0.3,0.4,0.7,0.6,1
					c0.1,0.1,0.1,0.2,0.2,0.3c0.2,0.3,0.5,0.8,0.8,1.2c0.2,0.4,0.4,0.9,0.5,1.3c0,0.1,0,0.1,0.1,0.2c0.1,0.4,0.3,0.7,0.3,1.1
					c0,0.4,0.1,0.9,0,1.3c-0.1,0.5-0.3,1-0.5,1.4c-0.2,0.3-0.5,0.7-0.8,0.9c-0.1,0.1-0.3,0.3-0.4,0.4c-0.4,0.5-0.9,0.9-1.3,1.2
					c-0.1,0.1-0.2,0.2-0.4,0.3c-0.4,0.3-0.8,0.6-1.3,0.8c-0.6,0.2-1.2,0.3-1.9,0.4c-0.1,0-0.2,0-0.3,0c-0.2,0-0.4,0-0.6,0.1
					C18.6,37,18,37,17.3,36.9z"/>
			</g>
		</g>
	</g>
	<g id="XMLID_20969_">
		<g id="XMLID_20970_">
			<g id="XMLID_20971_">
				<path id="XMLID_20972_" class="st16" d="M17.3,36.5c-0.6-0.1-1.1-0.4-1.6-0.7c-0.2-0.1-0.4-0.3-0.6-0.4c-0.7-0.4-1.3-1-1.9-1.7
					c-0.2-0.2-0.3-0.4-0.5-0.6c-0.4-0.5-0.8-1-1.1-1.6c-0.3-0.6-0.4-1.2-0.5-1.8c0-0.2-0.1-0.5-0.1-0.7c0-0.3-0.1-0.5-0.2-0.8
					c-0.1-0.6-0.2-1.2-0.2-1.8c0-0.6,0.2-1.1,0.4-1.6c0.1-0.2,0.1-0.3,0.2-0.5c0.2-0.6,0.5-1.1,0.9-1.6c0-0.1,0.1-0.1,0.1-0.2
					c0.3-0.4,0.6-0.8,1-1.1c0.4-0.3,0.8-0.4,1.3-0.6c0.4-0.1,0.9-0.2,1.4-0.2c0.1,0,0.3,0,0.4-0.1c0.3-0.1,0.6-0.1,0.9-0.1
					c0.3,0.1,0.6,0.2,0.9,0.4c0.1,0.1,0.2,0.1,0.3,0.2c0.4,0.1,0.8,0.3,1.2,0.6c0.4,0.2,0.8,0.5,1.1,0.8c0.1,0.1,0.2,0.2,0.4,0.2
					c0.1,0.1,0.3,0.1,0.4,0.2c0.2,0.1,0.3,0.2,0.4,0.3c0.4,0.3,0.7,0.7,1,1c0.3,0.3,0.6,0.7,0.9,1.1c0.2,0.3,0.4,0.6,0.6,1
					c0.1,0.1,0.1,0.2,0.2,0.3c0.2,0.3,0.5,0.7,0.7,1.2c0.2,0.4,0.4,0.8,0.5,1.3c0,0.1,0,0.1,0.1,0.2c0.1,0.3,0.3,0.7,0.3,1.1
					c0,0.4,0.1,0.9,0,1.3c-0.1,0.5-0.3,1-0.5,1.3c-0.2,0.3-0.4,0.6-0.7,0.8c-0.2,0.1-0.3,0.3-0.4,0.4c-0.4,0.5-0.8,0.8-1.3,1.2
					c-0.1,0.1-0.3,0.2-0.4,0.3c-0.4,0.3-0.7,0.5-1.2,0.7c-0.6,0.2-1.2,0.3-1.8,0.3c-0.1,0-0.2,0-0.3,0c-0.2,0-0.4,0-0.6,0
					C18.5,36.7,17.9,36.7,17.3,36.5z"/>
			</g>
		</g>
	</g>
	<g id="XMLID_20965_">
		<g id="XMLID_20966_">
			<g id="XMLID_20967_">
				<path id="XMLID_20968_" class="st17" d="M25.9,30.2c0,0.4,0.1,0.9,0,1.3c-0.1,0.4-0.3,0.9-0.5,1.3c-0.2,0.4-0.8,0.8-1.1,1.2
					c-0.4,0.4-0.8,0.8-1.3,1.1c-0.5,0.3-0.9,0.7-1.6,0.9c-0.6,0.2-1.3,0.3-2,0.3c-0.7,0-1.4,0.1-2.1-0.1c-0.7-0.2-1.4-0.7-2.1-1.1
					c-0.7-0.4-1.3-1-1.8-1.6c-0.6-0.6-1.2-1.3-1.5-2.1c-0.4-0.8-0.5-1.6-0.6-2.4c-0.2-0.8-0.4-1.7-0.3-2.4c0-0.7,0.3-1.3,0.5-1.9
					c0.2-0.6,0.5-1.1,0.8-1.5c0.3-0.5,0.7-0.9,1-1.2c0.4-0.3,0.8-0.5,1.3-0.6c0.4-0.1,0.9-0.2,1.3-0.2c0.4,0,0.9-0.2,1.3-0.2
					c0.4,0.1,0.8,0.3,1.2,0.5c0.4,0.1,0.8,0.3,1.2,0.5c0.4,0.2,0.7,0.5,1.1,0.7c0.4,0.3,0.8,0.4,1.1,0.7c0.3,0.3,0.7,0.6,1,1
					c0.3,0.3,0.6,0.7,0.9,1.1c0.3,0.4,0.5,0.8,0.7,1.2c0.2,0.4,0.5,0.8,0.7,1.2c0.2,0.4,0.3,0.8,0.4,1.2
					C25.7,29.4,25.9,29.8,25.9,30.2z"/>
			</g>
		</g>
	</g>
	<g id="XMLID_20961_">
		<g id="XMLID_20962_">
			<g id="XMLID_20963_">
				<path id="XMLID_20964_" class="st18" d="M17.4,34.9c-0.2-0.1-0.6-0.3-0.9-0.5c-0.2-0.1-0.5-0.3-0.7-0.5c-0.5-0.3-1-0.7-1.4-1.2
					c-0.2-0.2-0.4-0.4-0.6-0.6c-0.3-0.3-0.5-0.7-0.7-0.9c-0.1-0.3-0.2-0.6-0.3-1c-0.1-0.3-0.1-0.5-0.2-0.8c-0.1-0.3-0.2-0.6-0.2-0.9
					c-0.1-0.4-0.2-0.8-0.2-1c0-0.3,0.1-0.7,0.2-1c0-0.2,0.1-0.3,0.1-0.5c0.1-0.4,0.3-0.8,0.6-1.3c0-0.1,0.1-0.1,0.1-0.2
					c0.2-0.4,0.4-0.7,0.7-0.9c0.3-0.2,0.6-0.4,1-0.6c0.3-0.1,0.7-0.2,1.1-0.3c0.2,0,0.4-0.1,0.6-0.1c0.2-0.1,0.4-0.1,0.5-0.1
					c0.2,0,0.4,0.1,0.6,0.2c0.1,0.1,0.3,0.1,0.4,0.2c0.3,0.1,0.6,0.2,1,0.4c0.3,0.1,0.6,0.3,1,0.6c0.2,0.1,0.3,0.2,0.5,0.3
					c0.1,0.1,0.2,0.1,0.3,0.2c0.1,0,0.1,0.1,0.2,0.1c0.3,0.3,0.6,0.6,0.9,0.8c0.3,0.3,0.5,0.6,0.8,0.9c0.1,0.2,0.3,0.5,0.4,0.7
					c0.1,0.1,0.1,0.2,0.2,0.3c0.2,0.3,0.4,0.7,0.6,1c0.1,0.3,0.2,0.7,0.3,1.1c0,0.1,0,0.1,0.1,0.2c0.1,0.3,0.2,0.6,0.2,0.9
					c0,0.4,0,0.8-0.1,1.1c-0.1,0.4-0.3,0.8-0.5,1.1c-0.1,0.1-0.2,0.3-0.4,0.4c-0.2,0.1-0.4,0.3-0.6,0.5c-0.3,0.3-0.7,0.6-1.1,0.8
					c-0.2,0.1-0.3,0.2-0.4,0.3c-0.3,0.2-0.6,0.3-0.8,0.4C20.4,35,19.9,35,19.4,35c-0.1,0-0.2,0-0.3,0c-0.2,0-0.4,0-0.6,0
					C18,35,17.7,35,17.4,34.9z"/>
			</g>
		</g>
	</g>
	<g id="XMLID_20957_">
		<g id="XMLID_20958_">
			<g id="XMLID_20959_">
				<path id="XMLID_20960_" class="st19" d="M17.4,32.9c-0.2-0.1-0.5-0.3-0.8-0.5c-0.3-0.2-0.6-0.5-0.9-0.8
					c-0.2-0.2-0.4-0.5-0.6-0.7c-0.1-0.1-0.1-0.2-0.2-0.2c0-0.1-0.1-0.2-0.1-0.3c-0.1-0.3-0.2-0.6-0.2-0.8c-0.1-0.4-0.2-0.7-0.3-1
					c0-0.1-0.1-0.2-0.1-0.3c0-0.1,0-0.3,0.1-0.4c0-0.2,0.1-0.4,0.1-0.6c0-0.3,0.2-0.6,0.3-0.9c0-0.1,0.1-0.1,0.1-0.2
					c0.1-0.2,0.3-0.5,0.3-0.6c0.1-0.2,0.3-0.3,0.6-0.5c0.2-0.1,0.4-0.2,0.7-0.3c0.3-0.1,0.5-0.2,0.7-0.3c0,0,0.1,0,0.1,0
					c0.1,0,0.1,0,0.2,0.1c0.2,0.1,0.4,0.1,0.6,0.1c0.2,0,0.5,0.1,0.8,0.3c0.2,0.1,0.5,0.3,0.7,0.4c0.2,0.1,0.5,0.2,0.6,0.3
					c0.1,0,0.1,0.1,0.2,0.1c0.2,0.2,0.4,0.4,0.6,0.5c0.2,0.2,0.4,0.4,0.6,0.7c0,0.1,0.1,0.3,0.2,0.4c0.1,0.1,0.1,0.3,0.2,0.4
					c0.1,0.2,0.3,0.5,0.4,0.8c0.1,0.2,0.1,0.6,0.2,0.8c0,0.1,0,0.2,0,0.2c0,0.2,0.1,0.5,0.1,0.6c0,0.2,0,0.6-0.1,0.8
					c-0.1,0.2-0.2,0.4-0.3,0.6c0,0-0.1,0.1-0.1,0.1c-0.2,0.1-0.5,0.3-0.7,0.6c-0.3,0.2-0.5,0.4-0.7,0.5c-0.2,0.1-0.3,0.2-0.5,0.2
					c-0.1,0.1-0.3,0.1-0.4,0.2c-0.1,0-0.4,0-0.7,0c-0.1,0-0.2,0-0.3,0c-0.2,0-0.5,0-0.7-0.1c-0.1,0-0.2,0-0.3,0
					C17.6,33,17.5,32.9,17.4,32.9z"/>
			</g>
		</g>
	</g>
	<g id="XMLID_20953_">
		<g id="XMLID_20954_">
			<g id="XMLID_20955_">
				<path id="XMLID_20956_" class="st20" d="M16.7,22.3c-0.5-0.7,0.8-0.8,1.1-0.3c0.2,0.4,0.1,1-0.4,0.9
					C17.1,22.9,17.1,22.5,16.7,22.3C16.8,22.4,16.7,22.3,16.7,22.3z"/>
			</g>
		</g>
	</g>
	<g id="XMLID_20949_">
		<g id="XMLID_20950_">
			<g id="XMLID_20951_">
				<path id="XMLID_20952_" class="st20" d="M19.6,23.1c0.5-0.3,1,0.5,0.6,0.8c-0.2,0.1-0.7,0-0.8-0.3
					C19.2,23.2,19.5,23.2,19.6,23.1z"/>
			</g>
		</g>
	</g>
	<g id="XMLID_20945_">
		<g id="XMLID_20946_">
			<g id="XMLID_20947_">
				<path id="XMLID_20948_" class="st21" d="M18.3,23.8c-0.8-0.2-0.7,0.7-0.7,1.4c0,1.3,1.7-1,0.6-1.4"/>
			</g>
		</g>
	</g>
	<g id="XMLID_20941_">
		<g id="XMLID_20942_">
			<g id="XMLID_20943_">
				<path id="XMLID_20944_" class="st21" d="M15.6,23.4c0-0.8-1.7-0.2-1,0.8c0.5,0.6,0.7-0.2,0.9-0.6C15.5,23.6,15.6,23.5,15.6,23.4
					z"/>
			</g>
		</g>
	</g>
	<g id="XMLID_20937_">
		<g id="XMLID_20938_">
			<g id="XMLID_20939_">
				<path id="XMLID_20940_" class="st22" d="M22.2,26.2c-0.9-0.6-0.8,1.3,0.3,1C23.2,27,22.2,26.2,22.2,26.2z"/>
			</g>
		</g>
	</g>
	<g id="XMLID_20933_">
		<g id="XMLID_20934_">
			<g id="XMLID_20935_">
				<path id="XMLID_20936_" class="st20" d="M22.8,28.8c-0.4,0.8-0.2,1,0.4,1.7c1.3,1.2,0.7-1.7-0.2-1.8
					C22.9,28.7,22.8,28.8,22.8,28.8z"/>
			</g>
		</g>
	</g>
	<g id="XMLID_20929_">
		<g id="XMLID_20930_">
			<g id="XMLID_20931_">
				<path id="XMLID_20932_" class="st20" d="M18.3,29.5c0.1-0.7,1-1.3,1.3-0.4c0.3,0.6-1,1-1.4,0.6C18.2,29.7,18.3,29.6,18.3,29.5z"
					/>
			</g>
		</g>
	</g>
	<g id="XMLID_20925_">
		<g id="XMLID_20926_">
			<g id="XMLID_20927_">
				<path id="XMLID_20928_" class="st20" d="M17,27.1c0.4-0.5,0.7,0.5,0.4,0.7c-0.3,0.1-0.5-0.2-0.4-0.5C16.9,27.2,17,27.2,17,27.1z
					"/>
			</g>
		</g>
	</g>
	<g id="XMLID_20921_">
		<g id="XMLID_20922_">
			<g id="XMLID_20923_">
				<path id="XMLID_20924_" class="st20" d="M19.7,27.1c0.5,0.4,1-0.5,0.5-0.6C19.9,26.4,19.1,26.6,19.7,27.1z"/>
			</g>
		</g>
	</g>
	<g id="XMLID_20917_">
		<g id="XMLID_20918_">
			<g id="XMLID_20919_">
				<path id="XMLID_20920_" class="st22" d="M21.6,24.4c-0.4-0.5-0.9-0.1-0.5,0.4c0.3,0.3,0.6,0.2,0.5-0.3
					C21.6,24.5,21.6,24.5,21.6,24.4z"/>
			</g>
		</g>
	</g>
	<g id="XMLID_20913_">
		<g id="XMLID_20914_">
			<g id="XMLID_20915_">
				<path id="XMLID_20916_" class="st20" d="M14.3,26c-1.7-1.1-0.3,2.5,0.5,2c0.7-0.5,0.3-1.5-0.4-1.8C14.5,26.1,14.4,26,14.3,26z"
					/>
			</g>
		</g>
	</g>
	<g id="XMLID_20909_">
		<g id="XMLID_20910_">
			<g id="XMLID_20911_">
				<path id="XMLID_20912_" class="st21" d="M14.4,30.6c0.1-1-2-2.9-1.8-1.7C12.7,29.5,14.2,32.4,14.4,30.6z"/>
			</g>
		</g>
	</g>
	<g id="XMLID_20905_">
		<g id="XMLID_20906_">
			<g id="XMLID_20907_">
				<path id="XMLID_20908_" class="st22" d="M16.1,29.7c0.5,0.3,0.5-0.6,0.2-0.7C16.1,28.9,15.6,29.4,16.1,29.7z"/>
			</g>
		</g>
	</g>
	<g id="XMLID_20901_">
		<g id="XMLID_20902_">
			<g id="XMLID_20903_">
				<path id="XMLID_20904_" class="st21" d="M20,31.5c0.5,0.1,0.5-0.6,0.3-0.7C20.1,30.7,19,31.4,20,31.5z"/>
			</g>
		</g>
	</g>
	<g id="XMLID_20897_">
		<g id="XMLID_20898_">
			<g id="XMLID_20899_">
				<path id="XMLID_20900_" class="st20" d="M21.1,29.1c0.6,0.1,0.6-1,0.1-0.8C21,28.3,20.6,29,21.1,29.1z"/>
			</g>
		</g>
	</g>
	<g id="XMLID_20893_">
		<g id="XMLID_20894_">
			<g id="XMLID_20895_">
				<path id="XMLID_20896_" class="st21" d="M23,33.7c0.7-0.3,0.2-1.2-0.3-1C22.3,32.8,21.8,34.2,23,33.7z"/>
			</g>
		</g>
	</g>
	<g id="XMLID_20889_">
		<g id="XMLID_20890_">
			<g id="XMLID_20891_">
				<path id="XMLID_20892_" class="st20" d="M19.2,32.7c-0.7,0-0.2,0.6,0.3,0.7c0.7,0.1,0.4-0.5-0.1-0.7
					C19.3,32.7,19.2,32.7,19.2,32.7z"/>
			</g>
		</g>
	</g>
	<g id="XMLID_20885_">
		<g id="XMLID_20886_">
			<g id="XMLID_20887_">
				<path id="XMLID_20888_" class="st20" d="M16.7,30.7c-0.3,0.2-0.6,0.5-0.4,1c0.4,0.8,1.1-0.8,0.6-1
					C16.8,30.6,16.7,30.7,16.7,30.7z"/>
			</g>
		</g>
	</g>
	<g id="XMLID_20881_">
		<g id="XMLID_20882_">
			<g id="XMLID_20883_">
				<path id="XMLID_20884_" class="st22" d="M17,33.4c-0.3,0.2-0.9,1.6-0.1,1.6C17.6,34.9,17.5,33.6,17,33.4
					C17.1,33.4,17,33.4,17,33.4z"/>
			</g>
		</g>
	</g>
	<g id="XMLID_20877_">
		<g id="XMLID_20878_">
			<g id="XMLID_20879_">
				<path id="XMLID_20880_" class="st20" d="M20.1,35c0.5,0.1,1.4-0.3,1.5-0.6c-0.2-0.1-0.3-0.1-0.5-0.1C21,34.3,18.6,34.6,20.1,35z
					"/>
			</g>
		</g>
	</g>
	<g id="XMLID_20873_">
		<g id="XMLID_20874_">
			<g id="XMLID_20875_">
				<path id="XMLID_20876_" class="st21" d="M24.1,27.9c-0.2,0.2,0,0.7,0.4,0.5c0.4-0.2,0.1-0.7-0.3-0.6
					C24.1,27.8,24.1,27.8,24.1,27.9z"/>
			</g>
		</g>
	</g>
	<g id="XMLID_20869_">
		<g id="XMLID_20870_">
			<g id="XMLID_20871_">
				<path id="XMLID_20872_" class="st22" d="M22,30.4c-0.1,0-0.6,1.1-0.3,1.3c0.7,0.3,0.6-1,0.4-1.2C22.1,30.4,22,30.4,22,30.4z"/>
			</g>
		</g>
	</g>
	<g id="XMLID_20865_">
		<g id="XMLID_20866_">
			<g id="XMLID_20867_">
				<path id="XMLID_20868_" class="st22" d="M12.8,25.6c0.5,0.5,0.9-0.3,0.9-0.7c0-0.3-0.3-0.5-0.4-0.5C13,24.4,12.2,25,12.8,25.6z"
					/>
			</g>
		</g>
	</g>
	<g id="XMLID_20861_">
		<g id="XMLID_20862_">
			<g id="XMLID_20863_">
				<path id="XMLID_20864_" class="st22" d="M24.8,31.3c-1.9,0.5,0.8,0.8,0.1,0C24.9,31.3,24.8,31.3,24.8,31.3z"/>
			</g>
		</g>
	</g>
	<g id="XMLID_20857_">
		<g id="XMLID_20858_">
			<g id="XMLID_20859_">
				<path id="XMLID_20860_" class="st20" d="M14.2,31.8c-1.1-1-1.4-0.1-0.2,0.8c0.9,0.5,1.2-0.2,0.3-0.7
					C14.3,31.9,14.3,31.8,14.2,31.8z"/>
			</g>
		</g>
	</g>
	<g id="XMLID_20853_">
		<g id="XMLID_20854_">
			<g id="XMLID_20855_">
				<path id="XMLID_20856_" class="st20" d="M16.4,25.4c-0.3-1.3-0.5,1.4,0,0.4C16.4,25.7,16.5,25.5,16.4,25.4z"/>
			</g>
		</g>
	</g>
	<g id="XMLID_20849_">
		<g id="XMLID_20850_">
			<g id="XMLID_20851_">
				<path id="XMLID_20852_" class="st22" d="M18.5,26.9c-0.3-0.2-0.8,0.1-0.4,0.5C18.5,27.6,18.7,27.2,18.5,26.9
					C18.5,26.9,18.5,26.9,18.5,26.9z"/>
			</g>
		</g>
	</g>
</g>
<g id="XMLID_20641_">
	<g id="XMLID_20703_">
		<g id="XMLID_20704_">
			<g id="XMLID_20705_">
				<defs>
					<path id="XMLID_20709_" d="M47.8,31.8c-0.3,1.3-0.6,2.6-1.1,3.9c-1,3.3-7.2,5.7-12.2,3.8c-5-1.8-7.1-5.5-6.3-7
						c0.4-0.6,0.7-1.3,1-2c-0.6,1.5,1.9,4.9,7,6.2C41.3,38.1,47.1,35.1,47.8,31.8z"/>
				</defs>
				<clipPath id="XMLID_2_">
					<use xlink:href="#XMLID_20709_"  style="overflow:visible;"/>
				</clipPath>
			</g>
		</g>
	</g>
	<g id="XMLID_20649_">
		<g id="XMLID_20683_">
			<g id="XMLID_20684_" class="st23">
				<g id="XMLID_20694_" class="st23">
					<defs>
						<path id="XMLID_20698_" class="st23" d="M47.8,31.8c-0.3,1.3-0.6,2.6-1.1,3.9c-1,3.3-7.2,5.7-12.2,3.8c-5-1.8-7.1-5.5-6.3-7
							c0.4-0.6,0.7-1.3,1-2c-0.6,1.5,1.9,4.9,7,6.2C41.3,38.1,47.1,35.1,47.8,31.8z"/>
					</defs>
					<clipPath id="XMLID_3_">
						<use xlink:href="#XMLID_20698_"  style="overflow:visible;"/>
					</clipPath>
					<g id="XMLID_20699_" class="st24">
						<g id="XMLID_20700_">
							<g id="XMLID_20701_">
								<path id="XMLID_20702_" class="st25" d="M47.5,32.6c-0.1,0.3-0.3,0.5-0.5,0.8c-0.2,0.3-0.5,0.7-0.9,1
									c-2.2,2.1-6.3,3.2-10,2.4c-5.1-1.3-7.6-4.7-7-6.2c-0.3,0.7-0.6,1.3-1,2c-0.8,1.4,1.3,5.2,6.3,7c3.6,1.3,7.8,0.5,10.3-1.4
									c0.4-0.3,0.7-0.6,1-0.9c0.2-0.2,0.4-0.5,0.5-0.7c0.2-0.3,0.3-0.6,0.4-0.8c0.4-1.3,0.8-2.6,1.1-3.9
									C47.7,32.1,47.6,32.3,47.5,32.6z"/>
							</g>
						</g>
					</g>
				</g>
				<g id="XMLID_20685_">
					<g id="XMLID_20690_">
						<g id="XMLID_20691_">
							<g id="XMLID_20692_">
								<path id="XMLID_20693_" class="st26" d="M39.1,28.3c5.1-0.6,9.3,0.1,8.7,3.5c-0.6,3.3-6.4,6.3-11.6,5
									c-5.1-1.3-7.6-4.7-7-6.2C29.8,29.1,33.9,28.9,39.1,28.3z"/>
							</g>
						</g>
					</g>
					<g id="XMLID_20686_">
						<g id="XMLID_20687_">
							<g id="XMLID_20688_">
								<path id="XMLID_20689_" class="st27" d="M41.7,35.8c-1.7,0.4-3.5,0.4-5.1,0.1c-5.3-1.2-7.2-4.3-6.9-5.2
									c0.3-0.6,1.6-1,4.5-1.3c1.4-0.2,3.1-0.3,4.7-0.4c2.4-0.1,4.7-0.1,6.3,0.4c1.6,0.6,2,1.6,1.9,2.3C46.8,33,45,35,41.7,35.8z"
									/>
							</g>
						</g>
					</g>
				</g>
			</g>
		</g>
		<g id="XMLID_20679_">
			<g id="XMLID_20680_">
				<g id="XMLID_20681_">
					<path id="XMLID_20682_" class="st28" d="M37.3,33.7c-0.2,0.4-1.9,2-1.2,2c0.7,0.1,1-1.4,1.2-1.9C37.2,33.8,37.2,33.7,37.3,33.7
						z"/>
				</g>
			</g>
		</g>
		<g id="XMLID_20675_">
			<g id="XMLID_20676_">
				<g id="XMLID_20677_">
					<path id="XMLID_20678_" class="st28" d="M38.1,33.7c0,0.4-0.9,2.5-0.2,2.1c0.8-0.5,0.3-1.6,0.2-2
						C38.2,33.8,38.1,33.7,38.1,33.7z"/>
				</g>
			</g>
		</g>
		<g id="XMLID_20671_">
			<g id="XMLID_20672_">
				<g id="XMLID_20673_">
					<path id="XMLID_20674_" class="st28" d="M39.3,33.9c0,0.4-0.4,2.5,0.3,1.9C40.3,35.1,39.5,34.3,39.3,33.9
						C39.3,34,39.3,33.9,39.3,33.9z"/>
				</g>
			</g>
		</g>
		<g id="XMLID_20667_">
			<g id="XMLID_20668_">
				<g id="XMLID_20669_">
					<path id="XMLID_20670_" class="st28" d="M36.3,33.5c-0.3,0.3-2.1,1.3-1.6,1.6c0.5,0.3,1.2-1.1,1.5-1.5
						C36.2,33.6,36.3,33.5,36.3,33.5z"/>
				</g>
			</g>
		</g>
		<g id="XMLID_20663_">
			<g id="XMLID_20664_">
				<g id="XMLID_20665_">
					<path id="XMLID_20666_" class="st28" d="M34.8,33.2c-0.3,0.2-2.1,0.9-1.6,1.3c0.5,0.4,1.3-0.9,1.6-1.2
						C34.8,33.3,34.8,33.2,34.8,33.2z"/>
				</g>
			</g>
		</g>
		<g id="XMLID_20659_">
			<g id="XMLID_20660_">
				<g id="XMLID_20661_">
					<path id="XMLID_20662_" class="st28" d="M33.5,32.6c-0.3,0.2-2,0.5-1.7,1C32.2,34.1,33.1,33,33.5,32.6
						C33.5,32.7,33.5,32.7,33.5,32.6z"/>
				</g>
			</g>
		</g>
		<g id="XMLID_20655_">
			<g id="XMLID_20656_">
				<g id="XMLID_20657_">
					<path id="XMLID_20658_" class="st28" d="M31.9,31.3c-0.3,0-1.8-0.6-1.7,0c0.1,0.6,1.2,0.1,1.6,0C31.8,31.3,31.8,31.3,31.9,31.3
						z"/>
				</g>
			</g>
		</g>
		<g id="XMLID_20650_">
			<g id="XMLID_20651_">
				<g id="XMLID_20652_">
					<g id="XMLID_20653_">
						<path id="XMLID_20654_" class="st29" d="M29.1,31.7c0,0,0,0.1,0.1,0.2c0,0.1,0.1,0.3,0.2,0.5c0.2,0.4,0.6,0.9,1.1,1.4
							c0.5,0.5,1.2,1.1,2,1.6c0.8,0.5,1.8,1,2.9,1.1c1.1,0.2,2.3,0.3,3.4,0.2c1.1,0,2.2-0.2,3.1-0.3c0.9-0.2,1.7-0.5,2.3-0.7
							c0.6-0.2,0.9-0.4,0.9-0.4c0,0,0,0,0,0c0,0-0.3,0.2-0.9,0.5c-0.6,0.3-1.4,0.6-2.3,0.8c-1,0.3-2,0.4-3.2,0.4
							c-1.1,0-2.2-0.2-3.3-0.4c-1.1-0.2-2-0.7-2.9-1.2c-0.4-0.2-0.8-0.5-1.2-0.8c-0.4-0.3-0.6-0.6-0.9-0.8c-0.3-0.3-0.5-0.6-0.7-0.8
							c-0.2-0.3-0.3-0.5-0.4-0.7c-0.1-0.2-0.2-0.4-0.2-0.5C29.1,31.8,29.1,31.8,29.1,31.7C29.1,31.8,29.1,31.7,29.1,31.7z"/>
					</g>
				</g>
			</g>
		</g>
	</g>
	<g id="XMLID_20642_">
		<g id="XMLID_20643_">
			<g id="XMLID_20644_">
				<defs>
					<path id="XMLID_20648_" d="M47.8,31.8c-0.3,1.3-0.6,2.6-1.1,3.9c-1,3.3-7.2,5.7-12.2,3.8c-5-1.8-7.1-5.5-6.3-7
						c0.4-0.6,0.7-1.3,1-2c-0.6,1.5,1.9,4.9,7,6.2C41.3,38.1,47.1,35.1,47.8,31.8z"/>
				</defs>
				<clipPath id="XMLID_4_">
					<use xlink:href="#XMLID_20648_"  style="overflow:visible;"/>
				</clipPath>
			</g>
		</g>
	</g>
</g>
<g id="XMLID_20636_">
	<g id="XMLID_20637_">
		<g id="XMLID_20638_">
			<g id="XMLID_20639_">
				<polygon id="XMLID_20640_" class="st14" points="67.2,18.6 67.3,24.3 45.6,12.7 45.5,7 				"/>
			</g>
		</g>
	</g>
</g>
<g id="XMLID_20553_">
	<g id="XMLID_20554_">
		<g id="XMLID_20555_">
			<g id="XMLID_20556_">
				<path id="XMLID_20557_" class="st6" d="M67.2,18.6c2.8,1.5,2.5,3.8-0.7,5.2L41.8,34.5c-3.2,1.4-8,1.3-10.7-0.2L9.3,22.7
					c-2.8-1.5-2.5-3.8,0.7-5.2L34.7,6.8c3.1-1.4,8-1.3,10.7,0.2L67.2,18.6z"/>
			</g>
		</g>
	</g>
</g>
<g id="XMLID_20546_">
	<g id="XMLID_20547_">
		<g id="XMLID_20548_">
			<g id="XMLID_20549_">
				<path id="XMLID_20550_" class="st7" d="M67.5,18.4c2.9,1.5,2.6,4-0.7,5.4L42,34.6c-3.3,1.4-8.3,1.3-11.3-0.2L9.1,22.8
					c-2.9-1.5-2.6-4,0.7-5.4L34.5,6.7c3.3-1.4,8.3-1.3,11.3,0.2L67.5,18.4z M41.8,34.5l24.7-10.7c3.1-1.4,3.5-3.7,0.7-5.2L45.5,7
					c-2.8-1.5-7.6-1.6-10.7-0.2L10,17.5c-3.2,1.4-3.5,3.7-0.7,5.2l21.7,11.6C33.8,35.7,38.7,35.8,41.8,34.5"/>
			</g>
		</g>
	</g>
</g>
<g id="XMLID_20542_" class="st9">
	<g id="XMLID_20543_">
		<g id="XMLID_20544_">
			<path id="XMLID_20545_" class="st10" d="M68.7,23.1C68.7,23.1,68.7,23.1,68.7,23.1c0,0.2-0.1,0.3-0.1,0.4c0,0,0,0.1,0,0.1
				c0,0.1-0.1,0.2-0.1,0.3c0,0,0,0.1-0.1,0.1c-0.1,0.1-0.1,0.2-0.2,0.2c0,0-0.1,0.1-0.1,0.1c-0.1,0.1-0.2,0.2-0.2,0.2
				c0,0-0.1,0.1-0.1,0.1c-0.1,0-0.1,0.1-0.2,0.1c-0.1,0.1-0.2,0.1-0.3,0.2c-0.1,0.1-0.3,0.2-0.5,0.3c0,0-0.1,0-0.1,0
				c-0.2,0.1-0.3,0.2-0.5,0.3l-0.2,0.1l0-0.2L41.7,36c-0.3,0.1-0.5,0.2-0.8,0.3c-0.1,0-0.1,0-0.2,0.1c-0.3,0.1-0.6,0.2-0.9,0.2
				c0,0,0,0-0.1,0c-0.3,0.1-0.6,0.1-0.9,0.2c-0.2,0-0.4,0.1-0.6,0.1c-0.1,0-0.2,0-0.3,0c-0.3,0-0.6,0-0.9,0.1c0,0-0.1,0-0.1,0
				c-0.3,0-0.6,0-0.9,0c0,0-0.1,0-0.1,0c-0.3,0-0.6,0-0.9-0.1c-0.1,0-0.1,0-0.2,0c-0.3,0-0.6-0.1-0.9-0.1c-0.1,0-0.1,0-0.2,0
				c-0.3-0.1-0.5-0.1-0.7-0.2c-0.1,0-0.1,0-0.2,0c-0.3-0.1-0.6-0.2-0.8-0.3c-0.3-0.1-0.6-0.2-0.8-0.4L10,24.5l0,0.3l-0.3-0.1
				c-1.3-0.7-1.9-1.5-1.9-2.4l0.1,5.6c0,0.9,0.7,1.7,1.9,2.4L31,41.5c0.2,0.1,0.5,0.2,0.8,0.3c0,0,0.1,0,0.1,0c0,0,0.1,0,0.1,0
				c0.2,0.1,0.3,0.1,0.5,0.2c0.1,0,0.1,0,0.2,0.1c0,0,0.1,0,0.1,0c0.1,0,0.2,0.1,0.4,0.1c0.1,0,0.2,0,0.2,0.1c0,0,0,0,0.1,0
				c0.1,0,0.2,0,0.3,0.1c0.1,0,0.2,0,0.3,0.1c0,0,0.1,0,0.1,0c0.1,0,0.2,0,0.3,0c0.1,0,0.2,0,0.2,0c0.1,0,0.1,0,0.2,0
				c0.1,0,0.2,0,0.3,0c0.1,0,0.1,0,0.2,0c0.1,0,0.2,0,0.2,0c0.1,0,0.2,0,0.3,0c0,0,0.1,0,0.1,0c0.1,0,0.2,0,0.3,0c0.1,0,0.2,0,0.2,0
				c0,0,0,0,0.1,0c0.1,0,0.3,0,0.4,0c0.1,0,0.2,0,0.2,0c0,0,0,0,0,0c0.1,0,0.2,0,0.3,0c0.1,0,0.3,0,0.4,0c0,0,0,0,0,0
				c0.1,0,0.1,0,0.2,0c0.2,0,0.4,0,0.6-0.1c0,0,0.1,0,0.1,0c0,0,0.1,0,0.1,0c0.4-0.1,0.7-0.1,1.1-0.2c0,0,0,0,0.1,0c0,0,0,0,0,0
				c0.3-0.1,0.6-0.2,0.9-0.2c0.1,0,0.1,0,0.2-0.1c0.3-0.1,0.6-0.2,0.9-0.3l24.2-10.5c0.1,0,0.1-0.1,0.2-0.1c0.1-0.1,0.2-0.1,0.3-0.2
				c0,0,0.1,0,0.1,0c0.2-0.1,0.3-0.2,0.4-0.3c0,0,0,0,0,0c0.1-0.1,0.2-0.1,0.3-0.2c0.1,0,0.1-0.1,0.2-0.1c0,0,0,0,0,0
				c0,0,0.1-0.1,0.1-0.1c0.1-0.1,0.1-0.1,0.2-0.2c0,0,0,0,0,0c0,0,0.1-0.1,0.1-0.1c0,0,0.1-0.1,0.1-0.1c0,0,0-0.1,0.1-0.1
				c0,0,0.1-0.1,0.1-0.1c0,0,0-0.1,0.1-0.1c0-0.1,0.1-0.1,0.1-0.2c0,0,0-0.1,0-0.1c0,0,0,0,0,0c0-0.1,0.1-0.2,0.1-0.3c0,0,0,0,0,0
				c0,0,0,0,0-0.1c0-0.1,0-0.2,0-0.3c0,0,0-0.1,0-0.1l-0.1-5.6C68.8,22.9,68.8,23,68.7,23.1z"/>
		</g>
	</g>
</g>
<g id="XMLID_20538_">
	<g id="XMLID_20539_">
		<g id="XMLID_20540_">
			<path id="XMLID_20541_" class="st0" d="M69.4,21.3C69.4,21.3,69.4,21.3,69.4,21.3c0,0.2-0.1,0.3-0.1,0.4c0,0,0,0.1,0,0.1
				c0,0.1-0.1,0.2-0.1,0.3c0,0-0.1,0.1-0.1,0.1c-0.1,0.1-0.1,0.2-0.2,0.2c0,0-0.1,0.1-0.1,0.1c-0.1,0.1-0.2,0.2-0.2,0.2
				c0,0-0.1,0.1-0.1,0.1c-0.1,0-0.1,0.1-0.2,0.1c-0.1,0.1-0.2,0.1-0.3,0.2c-0.2,0.1-0.3,0.2-0.5,0.3c0,0-0.1,0-0.1,0
				c-0.2,0.1-0.4,0.2-0.6,0.3L66.5,24l0-0.2L41.8,34.5c-0.3,0.1-0.6,0.2-0.8,0.3c-0.1,0-0.1,0-0.2,0.1c-0.3,0.1-0.6,0.2-0.9,0.2
				c0,0,0,0-0.1,0c-0.3,0.1-0.6,0.1-0.9,0.2c-0.2,0-0.4,0.1-0.6,0.1c-0.1,0-0.2,0-0.3,0c-0.3,0-0.6,0-0.9,0.1c0,0-0.1,0-0.1,0
				c-0.3,0-0.6,0-0.9,0c0,0-0.1,0-0.1,0c-0.3,0-0.6,0-0.9-0.1c-0.1,0-0.1,0-0.2,0c-0.3,0-0.6-0.1-0.9-0.1c-0.1,0-0.1,0-0.2,0
				C33.5,35.1,33.2,35,33,35c-0.1,0-0.1,0-0.2,0c-0.3-0.1-0.6-0.2-0.9-0.3c-0.3-0.1-0.6-0.2-0.8-0.4L9.3,22.7l0,0.3l-0.3-0.1
				c-1.3-0.7-2-1.6-2-2.5L7.2,26c0,0.9,0.7,1.8,2,2.5l21.7,11.6c0.2,0.1,0.5,0.2,0.8,0.4c0,0,0.1,0,0.1,0c0,0,0.1,0,0.1,0
				c0.2,0.1,0.3,0.1,0.5,0.2c0.1,0,0.1,0,0.2,0.1c0,0,0.1,0,0.1,0c0.1,0,0.2,0.1,0.4,0.1c0.1,0,0.2,0,0.3,0.1c0,0,0.1,0,0.1,0
				c0.1,0,0.2,0,0.3,0.1c0.1,0,0.2,0,0.3,0.1c0,0,0.1,0,0.1,0c0.1,0,0.2,0,0.3,0c0.1,0,0.2,0,0.3,0c0.1,0,0.1,0,0.2,0
				c0.1,0,0.2,0,0.3,0c0.1,0,0.1,0,0.2,0c0.1,0,0.2,0,0.3,0c0.1,0,0.2,0,0.3,0c0,0,0.1,0,0.1,0c0.1,0,0.2,0,0.3,0c0.1,0,0.2,0,0.2,0
				c0,0,0,0,0.1,0c0.1,0,0.3,0,0.4,0c0.1,0,0.2,0,0.2,0c0,0,0,0,0,0c0.1,0,0.2,0,0.3,0c0.1,0,0.3,0,0.4,0c0,0,0,0,0,0
				c0.1,0,0.1,0,0.2,0c0.2,0,0.4,0,0.6-0.1c0,0,0.1,0,0.1,0c0,0,0.1,0,0.1,0c0.4-0.1,0.7-0.1,1.1-0.2c0,0,0,0,0.1,0c0,0,0,0,0,0
				c0.3-0.1,0.6-0.2,0.9-0.3c0.1,0,0.1,0,0.2-0.1c0.3-0.1,0.6-0.2,0.9-0.3l24.7-10.7c0.1,0,0.1-0.1,0.2-0.1c0.1-0.1,0.2-0.1,0.3-0.2
				c0,0,0.1,0,0.1,0c0.2-0.1,0.3-0.2,0.4-0.3c0,0,0,0,0,0c0.1-0.1,0.2-0.1,0.3-0.2c0.1,0,0.1-0.1,0.2-0.1c0,0,0,0,0,0
				c0,0,0.1-0.1,0.1-0.1c0.1-0.1,0.1-0.1,0.2-0.2c0,0,0,0,0,0c0,0,0.1-0.1,0.1-0.1c0,0,0.1-0.1,0.1-0.1c0,0,0-0.1,0.1-0.1
				c0,0,0.1-0.1,0.1-0.1c0,0,0-0.1,0.1-0.1c0-0.1,0.1-0.1,0.1-0.2c0,0,0-0.1,0-0.1c0,0,0,0,0,0c0-0.1,0.1-0.2,0.1-0.3c0,0,0,0,0,0
				c0,0,0,0,0-0.1c0-0.1,0-0.2,0-0.3c0,0,0-0.1,0-0.1l-0.1-5.7C69.4,21,69.4,21.1,69.4,21.3z"/>
		</g>
	</g>
</g>
<g id="XMLID_20534_">
	<g id="XMLID_20535_">
		<g id="XMLID_20536_">
			<path id="XMLID_20537_" class="st1" d="M35.8,40.2l-0.6,0l-0.6-0.1c0,0-0.6-0.1-0.6-0.1c0,0-0.6-0.1-0.6-0.1l-0.2-0.1
				c-0.2,0-0.3-0.1-0.3-0.1c0,0-0.1,0-0.1,0l-0.1,0c-0.2-0.1-0.3-0.1-0.5-0.2c0,0-0.1,0-0.1,0c0,0-0.1,0-0.1,0
				c-0.3-0.1-0.5-0.2-0.7-0.3L9.4,27.5c-1-0.5-1.6-1.2-1.6-1.9l-0.1-3.2C8,22.7,8.3,22.9,8.7,23L9,23.2c0.1,0.1,0.2,0.1,0.3,0.1
				c0.1,0,0.2,0,0.2,0l21.2,11.3c0.3,0.2,0.6,0.3,0.9,0.4c0.3,0.1,0.6,0.2,0.9,0.3l0.1,0c0.3,0.1,0.6,0.1,0.9,0.2l0.2,0
				c0.3,0.1,0.6,0.1,1,0.1l0.2,0c0.3,0,0.7,0.1,1,0.1l0.1,0c0.3,0,0.5,0,0.7,0c0.1,0,0.5,0,0.5,0c0.3,0,0.7,0,1-0.1l0.3,0
				c0.3,0,0.5-0.1,0.7-0.1c0.3,0,0.6-0.1,1-0.2c0,0,0.1,0,0.1,0c0.3-0.1,0.6-0.2,0.9-0.3l0.2-0.1c0.3-0.1,0.6-0.2,0.9-0.3l24.2-10.5
				c0.1,0,0.2,0.1,0.3,0.1c0.1,0,0.2,0,0.3-0.1l0.2-0.1c0.2-0.1,0.4-0.2,0.6-0.3l0.1-0.1c0.2-0.1,0.4-0.2,0.5-0.3
				c0.1-0.1,0.2-0.2,0.3-0.2c0,0,0.2-0.1,0.2-0.2l0.1,3.2c0,0.1,0,0.2,0,0.2c0,0,0,0.1,0,0.1c0,0,0,0.1-0.1,0.2c0,0-0.1,0.2-0.1,0.2
				L68.5,27c0,0-0.1,0.1-0.1,0.2c0,0-0.2,0.3-0.2,0.3c0,0-0.3,0.2-0.3,0.2l-0.2,0.1c-0.1,0.1-0.2,0.1-0.3,0.2c0,0,0,0-0.1,0
				c-0.1,0.1-0.2,0.1-0.4,0.2l-0.1,0c-0.1,0.1-0.2,0.1-0.3,0.2l-0.2,0.1L41.8,39.3c-0.3,0.1-0.5,0.2-0.8,0.3l-0.2,0.1
				c-0.3,0.1-0.6,0.2-0.9,0.2c-0.4,0.1-0.7,0.1-1.1,0.2c0,0-0.1,0-0.1,0l-0.1,0c-0.2,0-0.4,0-0.6,0.1l-0.2,0l-0.7,0l-0.6,0
				L35.8,40.2z"/>
		</g>
	</g>
</g>
<g id="XMLID_20530_">
	<g id="XMLID_20531_">
		<g id="XMLID_20532_">
			<path id="XMLID_20533_" class="st30" d="M11.4,24.8c0,0,3.2,1.6,7.9,4.1c2.4,1.2,5.1,2.7,8.1,4.2c1.5,0.8,3,1.6,4.5,2.3
				c0.8,0.3,1.7,0.5,2.5,0.6c0.9,0.1,1.7,0.2,2.6,0.1c0.9-0.1,1.8-0.1,2.6-0.3c0.8-0.2,1.7-0.5,2.5-0.8c1.6-0.6,3.2-1.3,4.7-2
				c3.1-1.3,5.9-2.5,8.4-3.6c4.9-2.1,8.2-3.4,8.2-3.4s-3.2,1.5-8.1,3.7c-2.4,1.1-5.3,2.3-8.3,3.7c-1.5,0.7-3.1,1.4-4.7,2
				c-0.8,0.3-1.7,0.6-2.5,0.8c-0.9,0.2-1.8,0.3-2.7,0.3c-0.9,0.1-1.8,0-2.7-0.2c-0.9-0.2-1.7-0.4-2.6-0.7c-1.6-0.8-3.1-1.6-4.6-2.4
				c-2.9-1.6-5.7-3.1-8-4.3C14.5,26.5,11.4,24.8,11.4,24.8z"/>
		</g>
	</g>
</g>
<g id="XMLID_20526_" class="st9">
	<g id="XMLID_20527_">
		<g id="XMLID_20528_">
			<path id="XMLID_20529_" class="st31" d="M65.3,23.6L41.7,33.8c-2.8,1.2-7.1,1.2-9.8,0c3.4-0.6,6.8-1.6,9.7-3.5
				c3-1.9,5.5-4.8,6.6-8.2c1.1-3.4,0.6-7.4-1.6-10.2c-1.6-2-3.8-3.3-6.1-4.3c-0.9-0.4-1.8-0.8-2.8-1.1c2.6-0.4,5.6-0.1,7.5,0.9
				l20.8,11.1C68.6,20.1,68.3,22.3,65.3,23.6z"/>
		</g>
	</g>
</g>
<g id="XMLID_20513_">
	<g id="XMLID_20522_">
		<g id="XMLID_20523_">
			<g id="XMLID_20524_">
				<path id="XMLID_20525_" class="st32" d="M15.6,20.6c-0.1,0.3-1.1,0.3-2.2-0.1c-1.1-0.4-1.9-0.9-1.8-1.2c0.1-0.3,1.1-0.3,2.2,0.1
					C14.9,19.7,15.7,20.3,15.6,20.6z"/>
			</g>
		</g>
	</g>
	<g id="XMLID_20518_">
		<g id="XMLID_20519_">
			<g id="XMLID_20520_">
				<path id="XMLID_20521_" class="st32" d="M16.3,22.3c-0.1,0.2-0.5,0.2-0.9,0s-0.8-0.4-0.7-0.6c0.1-0.2,0.5-0.2,0.9,0
					C16,21.8,16.4,22.1,16.3,22.3z"/>
			</g>
		</g>
	</g>
	<g id="XMLID_20514_">
		<g id="XMLID_20515_">
			<g id="XMLID_20516_">
				<path id="XMLID_20517_" class="st32" d="M16.2,19.6c0,0.1-0.3,0.1-0.7,0c-0.3-0.1-0.6-0.3-0.6-0.4c0-0.1,0.3-0.1,0.7,0
					C16,19.4,16.2,19.5,16.2,19.6z"/>
			</g>
		</g>
	</g>
</g>
<g id="XMLID_20500_">
	<g id="XMLID_20509_">
		<g id="XMLID_20510_">
			<g id="XMLID_20511_">
				<path id="XMLID_20512_" class="st32" d="M41.7,18c-0.1,0.2-0.7,0.2-1.5,0c-0.8-0.2-1.3-0.6-1.2-0.8c0.1-0.2,0.7-0.2,1.5,0
					C41.2,17.4,41.8,17.8,41.7,18z"/>
			</g>
		</g>
	</g>
	<g id="XMLID_20505_">
		<g id="XMLID_20506_">
			<g id="XMLID_20507_">
				<path id="XMLID_20508_" class="st32" d="M42.2,19.2c0,0.1-0.3,0.1-0.6,0c-0.3-0.1-0.5-0.3-0.5-0.4c0-0.1,0.3-0.1,0.6,0
					C42,18.9,42.2,19.1,42.2,19.2z"/>
			</g>
		</g>
	</g>
	<g id="XMLID_20501_">
		<g id="XMLID_20502_">
			<g id="XMLID_20503_">
				<path id="XMLID_20504_" class="st32" d="M42.1,17.4c0,0.1-0.2,0.1-0.5,0c-0.2-0.1-0.4-0.2-0.4-0.3c0-0.1,0.2-0.1,0.5,0
					C42,17.2,42.2,17.3,42.1,17.4z"/>
			</g>
		</g>
	</g>
</g>
<g id="XMLID_20496_" class="st2">
	<g id="XMLID_20497_">
		<g id="XMLID_20498_">
			<path id="XMLID_20499_" class="st3" d="M69.5,26.6L69.5,26.6c0,0.2,0,0.3,0,0.4c0,0,0,0,0,0.1c0,0,0,0,0,0c0,0.1-0.1,0.2-0.1,0.3
				c0,0,0,0,0,0c0,0,0,0.1,0,0.1c0,0.1,0,0.1-0.1,0.2c0,0,0,0.1-0.1,0.1c0,0,0,0.1-0.1,0.1c0,0,0,0.1-0.1,0.1c0,0-0.1,0.1-0.1,0.2
				c0,0-0.1,0.1-0.1,0.1c0,0,0,0,0,0c-0.1,0.1-0.1,0.1-0.2,0.2l-0.1,0.1c0,0,0,0,0,0c0,0-0.1,0.1-0.2,0.1c-0.1,0.1-0.2,0.2-0.3,0.2
				c0,0,0,0,0,0c-0.1,0.1-0.3,0.2-0.4,0.3c0,0-0.1,0-0.1,0c-0.1,0.1-0.2,0.1-0.4,0.2c-0.1,0-0.1,0.1-0.2,0.1l-15.1,6.6
				c2.3-1.2,4.4-2.7,6.2-4.6c0.5-0.5,0.9-1.1,0.9-1.8c0-0.7-0.6-1.3-1.3-1.5C57.3,28,57,28,56.7,28l9.8-4.2l0,0.2l0.2-0.1
				c0.2-0.1,0.4-0.2,0.6-0.3c0,0,0.1,0,0.1,0c0.2-0.1,0.3-0.2,0.5-0.3c0.1-0.1,0.2-0.1,0.3-0.2c0.1,0,0.1-0.1,0.2-0.1
				c0,0,0.1-0.1,0.1-0.1c0.1-0.1,0.2-0.2,0.2-0.2c0,0,0.1-0.1,0.1-0.1c0.1-0.1,0.1-0.2,0.2-0.2c0,0,0.1-0.1,0.1-0.1
				c0-0.1,0.1-0.2,0.1-0.3c0,0,0-0.1,0-0.1c0-0.1,0.1-0.2,0.1-0.4c0,0,0,0,0-0.1c0-0.1,0-0.2,0-0.4L69.5,26.6z"/>
		</g>
	</g>
</g>
<g id="XMLID_20492_" class="st4">
	<g id="XMLID_20493_">
		<g id="XMLID_20494_">
			<path id="XMLID_20495_" class="st5" d="M19.4,34L9.2,28.6c-1.3-0.7-2-1.6-2-2.5l-0.1-5.7c0,0.9,0.7,1.8,2,2.5L9.4,23v-0.3
				l7.3,3.9c-0.4,0.1-0.7,0.3-0.8,0.6c-0.2,0.4-0.2,0.8-0.1,1.3c0.3,1.6,1.3,3.1,2.4,4.3C18.6,33.2,19,33.6,19.4,34z"/>
		</g>
	</g>
</g>
</svg>
